frame # 0, length = 2205 [samples], average = 147.05804988662132 , squares average = 36787.22403628118
frame # 1, length = 2205 [samples], average = 143.0875283446712 , squares average = 35899.875736961454
frame # 2, length = 2205 [samples], average = 110.75374149659864 , squares average = 27316.993197278913
frame # 3, length = 2205 [samples], average = 164.80544217687074 , squares average = 41101.52562358277
frame # 4, length = 2205 [samples], average = 112.75600907029478 , squares average = 27531.845351473923
frame # 5, length = 2205 [samples], average = 132.25532879818593 , squares average = 32466.67528344671
frame # 6, length = 2205 [samples], average = 102.16507936507936 , squares average = 24288.244897959183
frame # 7, length = 2205 [samples], average = 135.0448979591837 , squares average = 32670.596825396824
frame # 8, length = 2205 [samples], average = 107.59591836734694 , squares average = 25580.762358276643
frame # 9, length = 2205 [samples], average = 124.33061224489796 , squares average = 29778.543764172337
frame # 10, length = 2205 [samples], average = 127.3424036281179 , squares average = 30326.89342403628
frame # 11, length = 2205 [samples], average = 121.04761904761905 , squares average = 28577.171882086168
frame # 12, length = 2205 [samples], average = 129.57006802721088 , squares average = 30807.053968253967
frame # 13, length = 2205 [samples], average = 112.81995464852608 , squares average = 26416.88253968254
frame # 14, length = 2205 [samples], average = 143.362358276644 , squares average = 34230.42993197279
frame # 15, length = 2205 [samples], average = 106.29342403628118 , squares average = 24780.45396825397
frame # 16, length = 2205 [samples], average = 146.12426303854875 , squares average = 35006.45986394558
frame # 17, length = 2205 [samples], average = 101.96054421768707 , squares average = 23844.463038548754
frame # 18, length = 2205 [samples], average = 151.38548752834467 , squares average = 36487.226757369615
frame # 19, length = 2205 [samples], average = 112.83990929705216 , squares average = 26688.184126984128
frame # 20, length = 2205 [samples], average = 159.77687074829933 , squares average = 38786.302947845805
frame # 21, length = 2205 [samples], average = 91.33151927437642 , squares average = 21491.02857142857
frame # 22, length = 2205 [samples], average = 149.8190476190476 , squares average = 36630.06031746032
frame # 23, length = 2205 [samples], average = 102.58548752834467 , squares average = 24737.64580498866
frame # 24, length = 2205 [samples], average = 151.00680272108843 , squares average = 37361.633560090704
frame # 25, length = 2205 [samples], average = 101.3891156462585 , squares average = 24979.698412698413
frame # 26, length = 2205 [samples], average = 151.0453514739229 , squares average = 38054.6462585034
frame # 27, length = 2205 [samples], average = 130.51700680272108 , squares average = 32861.5156462585
frame # 28, length = 2205 [samples], average = 122.32925170068027 , squares average = 30827.99909297052
frame # 29, length = 2205 [samples], average = 116.07482993197279 , squares average = 29314.226303854874
frame # 30, length = 2205 [samples], average = 140.5437641723356 , squares average = 35320.65260770975
frame # 31, length = 2205 [samples], average = 129.81224489795918 , squares average = 32502.765532879817
frame # 32, length = 2205 [samples], average = 89.30884353741497 , squares average = 21869.762358276643
frame # 33, length = 2205 [samples], average = 146.96825396825398 , squares average = 36272.24807256236
frame # 34, length = 2205 [samples], average = 106.79274376417233 , squares average = 25900.27664399093
frame # 35, length = 2205 [samples], average = 147.05895691609976 , squares average = 35907.995011337865
frame # 36, length = 2205 [samples], average = 110.31519274376417 , squares average = 26440.70612244898
frame # 37, length = 2205 [samples], average = 133.37868480725623 , squares average = 32224.31746031746
frame # 38, length = 2205 [samples], average = 127.11746031746031 , squares average = 30432.768253968254
frame # 39, length = 2205 [samples], average = 138.38956916099772 , squares average = 33192.30612244898
frame # 40, length = 2205 [samples], average = 130.54965986394558 , squares average = 31203.674376417235
frame # 41, length = 2205 [samples], average = 113.39319727891156 , squares average = 26764.547845804987
frame # 42, length = 2205 [samples], average = 137.71201814058958 , squares average = 33087.11700680272
frame # 43, length = 2205 [samples], average = 106.07845804988662 , squares average = 24897.496145124718
frame # 44, length = 2205 [samples], average = 144.43537414965985 , squares average = 34509.34965986395
frame # 45, length = 2205 [samples], average = 102.11292517006802 , squares average = 23825.283900226757
frame # 46, length = 2205 [samples], average = 150.89523809523808 , squares average = 36166.4843537415
frame # 47, length = 2205 [samples], average = 102.90975056689342 , squares average = 23780.95782312925
frame # 48, length = 2205 [samples], average = 147.2013605442177 , squares average = 35128.0358276644
frame # 49, length = 2205 [samples], average = 104.21541950113378 , squares average = 24261.30476190476
frame # 50, length = 2205 [samples], average = 158.54920634920634 , squares average = 38264.91383219955
frame # 51, length = 2205 [samples], average = 103.33650793650794 , squares average = 24468.368707482994
frame # 52, length = 2205 [samples], average = 136.88117913832198 , squares average = 33256.802267573694
frame # 53, length = 2205 [samples], average = 61.47573696145125 , squares average = 13988.104308390022
frame # 54, length = 2205 [samples], average = 17.65124716553288 , squares average = 720.372335600907
frame # 55, length = 2205 [samples], average = 180.04897959183674 , squares average = 39396.247619047615
frame # 56, length = 2205 [samples], average = 113.99092970521542 , squares average = 23411.418594104307
frame # 57, length = 2205 [samples], average = 120.92199546485261 , squares average = 25287.497959183675
frame # 58, length = 2205 [samples], average = 136.1342403628118 , squares average = 29355.826757369614
frame # 59, length = 2205 [samples], average = 88.27256235827664 , squares average = 17268.311564625852
frame # 60, length = 2205 [samples], average = 107.3047619047619 , squares average = 22279.08253968254
frame # 61, length = 2205 [samples], average = 134.5451247165533 , squares average = 30234.531519274376
frame # 62, length = 2205 [samples], average = 112.97777777777777 , squares average = 25838.175056689342
frame # 63, length = 2205 [samples], average = 194.75827664399094 , squares average = 46397.26530612245
frame # 64, length = 2205 [samples], average = 112.14784580498866 , squares average = 26158.725623582766
frame # 65, length = 2205 [samples], average = 188.94285714285715 , squares average = 46104.272562358274
frame # 66, length = 2205 [samples], average = 133.66167800453513 , squares average = 32364.938775510203
frame # 67, length = 2205 [samples], average = 151.15056689342404 , squares average = 36880.68344671202
frame # 68, length = 2205 [samples], average = 125.76961451247166 , squares average = 30277.22267573696
frame # 69, length = 2205 [samples], average = 128.4344671201814 , squares average = 30767.066666666666
frame # 70, length = 2205 [samples], average = 132.61451247165533 , squares average = 31689.471655328798
frame # 71, length = 2205 [samples], average = 109.55056689342403 , squares average = 25670.85850340136
frame # 72, length = 2205 [samples], average = 142.5219954648526 , squares average = 34141.30385487528
frame # 73, length = 2205 [samples], average = 104.71791383219954 , squares average = 24340.113832199546
frame # 74, length = 2205 [samples], average = 145.76643990929705 , squares average = 34736.63628117914
frame # 75, length = 2205 [samples], average = 102.7795918367347 , squares average = 23626.045804988662
frame # 76, length = 2205 [samples], average = 149.94965986394558 , squares average = 35715.28117913832
frame # 77, length = 2205 [samples], average = 97.56507936507937 , squares average = 22408.19909297052
frame # 78, length = 2205 [samples], average = 151.6888888888889 , squares average = 36280.080725623586
frame # 79, length = 2205 [samples], average = 96.55283446712018 , squares average = 22336.209070294786
frame # 80, length = 2205 [samples], average = 150.84897959183672 , squares average = 36543.83310657596
frame # 81, length = 2205 [samples], average = 97.90340136054422 , squares average = 23196.551020408162
frame # 82, length = 2205 [samples], average = 148.09433106575963 , squares average = 36098.02811791383
frame # 83, length = 2205 [samples], average = 113.81768707482993 , squares average = 27783.674376417235
frame # 84, length = 2205 [samples], average = 129.6530612244898 , squares average = 31832.32970521542
frame # 85, length = 2205 [samples], average = 91.19319727891157 , squares average = 22442.11292517007
frame # 86, length = 2205 [samples], average = 106.28072562358277 , squares average = 26590.90022675737
frame # 87, length = 2205 [samples], average = 136.15873015873015 , squares average = 34391.756916099774
frame # 88, length = 2205 [samples], average = 60.84172335600907 , squares average = 15118.012698412698
frame # 89, length = 2205 [samples], average = 170.48299319727892 , squares average = 43084.136507936506
frame # 90, length = 2205 [samples], average = 123.91746031746031 , squares average = 31148.978684807254
frame # 91, length = 2205 [samples], average = 159.89977324263037 , squares average = 40123.47800453515
frame # 92, length = 2205 [samples], average = 107.70702947845805 , squares average = 26661.372335600907
frame # 93, length = 2205 [samples], average = 142.29297052154195 , squares average = 35309.292517006805
frame # 94, length = 2205 [samples], average = 115.35555555555555 , squares average = 28355.548752834467
frame # 95, length = 2205 [samples], average = 143.9219954648526 , squares average = 35382.202267573695
frame # 96, length = 2205 [samples], average = 135.57460317460317 , squares average = 33162.988662131516
frame # 97, length = 2205 [samples], average = 132.31473922902495 , squares average = 32243.680725623584
frame # 98, length = 2205 [samples], average = 125.0734693877551 , squares average = 30027.08798185941
frame # 99, length = 2205 [samples], average = 119.05215419501134 , squares average = 28430.025396825396
frame # 100, length = 2205 [samples], average = 138.8154195011338 , squares average = 33235.742403628115
frame # 101, length = 2205 [samples], average = 107.84897959183674 , squares average = 25337.56598639456
frame # 102, length = 2205 [samples], average = 145.53650793650795 , squares average = 35025.38140589569
frame # 103, length = 2205 [samples], average = 106.56009070294785 , squares average = 24760.928344671203
frame # 104, length = 2205 [samples], average = 145.45986394557823 , squares average = 34600.09387755102
frame # 105, length = 2205 [samples], average = 101.24399092970522 , squares average = 23405.76371882086
frame # 106, length = 2205 [samples], average = 147.71428571428572 , squares average = 35223.22358276644
frame # 107, length = 2205 [samples], average = 107.17006802721089 , squares average = 25029.91746031746
frame # 108, length = 2205 [samples], average = 152.56009070294783 , squares average = 36585.17505668934
frame # 109, length = 2205 [samples], average = 105.12653061224489 , squares average = 24516.844444444443
frame # 110, length = 2205 [samples], average = 150.94829931972788 , squares average = 36508.35238095238
frame # 111, length = 2205 [samples], average = 93.540589569161 , squares average = 22096.178231292517
frame # 112, length = 2205 [samples], average = 148.2340136054422 , squares average = 36070.96326530612
frame # 113, length = 2205 [samples], average = 103.90702947845806 , squares average = 25014.23990929705
frame # 114, length = 2205 [samples], average = 167.12562358276645 , squares average = 41485.865759637185
frame # 115, length = 2205 [samples], average = 133.81179138321994 , squares average = 33487.04172335601
frame # 116, length = 2205 [samples], average = 157.06167800453514 , squares average = 39534.84036281179
frame # 117, length = 2205 [samples], average = 109.43356009070295 , squares average = 26858.026757369615
frame # 118, length = 2205 [samples], average = 136.81133786848073 , squares average = 34391.6022675737
frame # 119, length = 2205 [samples], average = 140.065306122449 , squares average = 35269.77233560091
frame # 120, length = 2205 [samples], average = 37.07800453514739 , squares average = 8755.869841269841
frame # 121, length = 2205 [samples], average = 154.63356009070296 , squares average = 38813.251247165535
frame # 122, length = 2205 [samples], average = 107.6625850340136 , squares average = 26702.631292517006
frame # 123, length = 2205 [samples], average = 130.08163265306123 , squares average = 32218.349206349205
frame # 124, length = 2205 [samples], average = 121.38321995464852 , squares average = 29734.286621315194
frame # 125, length = 2205 [samples], average = 131.42403628117913 , squares average = 32206.936054421767
frame # 126, length = 2205 [samples], average = 127.84081632653061 , squares average = 31000.04761904762
frame # 127, length = 2205 [samples], average = 128.67845804988661 , squares average = 31101.957369614513
frame # 128, length = 2205 [samples], average = 128.14920634920634 , squares average = 30787.139682539684
frame # 129, length = 2205 [samples], average = 109.28526077097506 , squares average = 25749.85306122449
frame # 130, length = 2205 [samples], average = 139.9251700680272 , squares average = 33536.85215419501
frame # 131, length = 2205 [samples], average = 101.08707482993198 , squares average = 23490.428571428572
frame # 132, length = 2205 [samples], average = 144.90884353741495 , squares average = 34421.32517006803
frame # 133, length = 2205 [samples], average = 102.2907029478458 , squares average = 23584.522902494333
frame # 134, length = 2205 [samples], average = 148.80544217687074 , squares average = 35394.96961451247
frame # 135, length = 2205 [samples], average = 100.9859410430839 , squares average = 23275.482993197278
frame # 136, length = 2205 [samples], average = 144.33333333333334 , squares average = 34485.44081632653
frame # 137, length = 2205 [samples], average = 98.13333333333334 , squares average = 22730.77006802721
frame # 138, length = 2205 [samples], average = 151.18548752834468 , squares average = 36272.783673469385
frame # 139, length = 2205 [samples], average = 96.43446712018141 , squares average = 22365.766893424036
frame # 140, length = 2205 [samples], average = 168.33378684807255 , squares average = 41167.713378684806
frame # 141, length = 2205 [samples], average = 95.33197278911565 , squares average = 22676.503854875282
frame # 142, length = 2205 [samples], average = 120.72743764172336 , squares average = 29406.367346938776
frame # 143, length = 2205 [samples], average = 104.27437641723355 , squares average = 25369.809977324265
frame # 144, length = 2205 [samples], average = 178.8498866213152 , squares average = 44543.319727891154
frame # 145, length = 2205 [samples], average = 108.09977324263039 , squares average = 26764.18140589569
frame # 146, length = 2205 [samples], average = 149.78956916099773 , squares average = 37703.561904761904
frame # 147, length = 2205 [samples], average = 106.43401360544217 , squares average = 26713.05351473923
frame # 148, length = 2205 [samples], average = 141.49160997732426 , squares average = 35802.425850340136
frame # 149, length = 2205 [samples], average = 95.66213151927438 , squares average = 24000.143764172335
frame # 150, length = 2205 [samples], average = 66.65895691609977 , squares average = 16404.319727891158
frame # 151, length = 2205 [samples], average = 153.64625850340136 , squares average = 38488.397278911565
frame # 152, length = 2205 [samples], average = 105.08571428571429 , squares average = 26065.84580498866
frame # 153, length = 2205 [samples], average = 126.88163265306123 , squares average = 31266.874376417232
frame # 154, length = 2205 [samples], average = 108.56780045351474 , squares average = 26409.6253968254
frame # 155, length = 2205 [samples], average = 124.62766439909296 , squares average = 30382.363718820863
frame # 156, length = 2205 [samples], average = 127.85986394557823 , squares average = 31165.45804988662
frame # 157, length = 2205 [samples], average = 131.04580498866213 , squares average = 31594.91247165533
frame # 158, length = 2205 [samples], average = 133.26621315192745 , squares average = 32001.187301587302
frame # 159, length = 2205 [samples], average = 108.86848072562358 , squares average = 25644.185487528346
frame # 160, length = 2205 [samples], average = 152.57278911564626 , squares average = 36770.755102040814
frame # 161, length = 2205 [samples], average = 107.33061224489796 , squares average = 25096.010884353742
frame # 162, length = 2205 [samples], average = 143.13514739229024 , squares average = 34287.32471655329
frame # 163, length = 2205 [samples], average = 103.38185941043083 , squares average = 23941.644897959184
frame # 164, length = 2205 [samples], average = 150.75827664399094 , squares average = 35977.93560090703
frame # 165, length = 2205 [samples], average = 103.04081632653062 , squares average = 24019.94693877551
frame # 166, length = 2205 [samples], average = 152.12698412698413 , squares average = 36339.461224489794
frame # 167, length = 2205 [samples], average = 107.33786848072562 , squares average = 24979.65260770975
frame # 168, length = 2205 [samples], average = 153.32244897959183 , squares average = 36967.658049886624
frame # 169, length = 2205 [samples], average = 105.18140589569161 , squares average = 24838.320634920634
frame # 170, length = 2205 [samples], average = 151.53560090702948 , squares average = 36772.78820861678
frame # 171, length = 2205 [samples], average = 108.48979591836735 , squares average = 25766.549659863944
frame # 172, length = 2205 [samples], average = 154.66213151927437 , squares average = 37826.134240362815
frame # 173, length = 2205 [samples], average = 106.37414965986395 , squares average = 25869.1641723356
frame # 174, length = 2205 [samples], average = 155.92108843537414 , squares average = 38881.820408163265
frame # 175, length = 2205 [samples], average = 92.95736961451247 , squares average = 22923.8716553288
frame # 176, length = 2205 [samples], average = 148.7968253968254 , squares average = 37233.678458049886
frame # 177, length = 2205 [samples], average = 112.86349206349206 , squares average = 28346.53514739229
frame # 178, length = 2205 [samples], average = 81.22448979591837 , squares average = 20411.881179138323
frame # 179, length = 2205 [samples], average = 171.22448979591837 , squares average = 43319.454875283445
frame # 180, length = 2205 [samples], average = 119.83537414965987 , squares average = 30051.112471655328
frame # 181, length = 2205 [samples], average = 127.03219954648526 , squares average = 31705.366893424038
frame # 182, length = 2205 [samples], average = 125.01814058956916 , squares average = 31040.16916099773
frame # 183, length = 2205 [samples], average = 142.156462585034 , squares average = 35230.773242630385
frame # 184, length = 2205 [samples], average = 103.4843537414966 , squares average = 25199.603174603173
frame # 185, length = 2205 [samples], average = 119.49659863945578 , squares average = 29060.71111111111
frame # 186, length = 2205 [samples], average = 131.859410430839 , squares average = 31992.245804988663
frame # 187, length = 2205 [samples], average = 128.52244897959184 , squares average = 30911.81950113379
frame # 188, length = 2205 [samples], average = 145.35464852607709 , squares average = 35137.643990929704
frame # 189, length = 2205 [samples], average = 113.45034013605442 , squares average = 26892.592290249435
frame # 190, length = 2205 [samples], average = 143.0344671201814 , squares average = 34411.92879818594
frame # 191, length = 2205 [samples], average = 104.90702947845806 , squares average = 24372.48253968254
frame # 192, length = 2205 [samples], average = 152.31065759637187 , squares average = 36399.356462585034
frame # 193, length = 2205 [samples], average = 103.12789115646258 , squares average = 23741.86439909297
frame # 194, length = 2205 [samples], average = 148.51156462585033 , squares average = 35528.01451247166
frame # 195, length = 2205 [samples], average = 103.31519274376417 , squares average = 24122.044444444444
frame # 196, length = 2205 [samples], average = 149.45895691609977 , squares average = 35896.66893424036
frame # 197, length = 2205 [samples], average = 105.75600907029478 , squares average = 24600.38911564626
frame # 198, length = 2205 [samples], average = 156.75419501133786 , squares average = 37758.321541950114
frame # 199, length = 2205 [samples], average = 96.68752834467121 , squares average = 22601.674376417235
