frame # 0, length = 2205 [samples], average = 154.6077097505669 , squares average = 37454.47891156463
frame # 1, length = 2205 [samples], average = 123.5922902494331 , squares average = 25695.64036281179
frame # 2, length = 2205 [samples], average = 117.29342403628118 , squares average = 25327.58820861678
frame # 3, length = 2205 [samples], average = 121.71927437641723 , squares average = 25866.67528344671
frame # 4, length = 2205 [samples], average = 112.9827664399093 , squares average = 23071.49977324263
frame # 5, length = 2205 [samples], average = 125.59637188208617 , squares average = 25881.486621315194
frame # 6, length = 2205 [samples], average = 136.42947845804989 , squares average = 28734.91201814059
frame # 7, length = 2205 [samples], average = 135.32607709750567 , squares average = 28539.80680272109
frame # 8, length = 2205 [samples], average = 148.2702947845805 , squares average = 31708.091609977324
frame # 9, length = 2205 [samples], average = 129.51519274376417 , squares average = 27177.495238095238
frame # 10, length = 2205 [samples], average = 128.6544217687075 , squares average = 26878.78321995465
frame # 11, length = 2205 [samples], average = 124.81950113378684 , squares average = 25944.532879818595
frame # 12, length = 2205 [samples], average = 135.09478458049887 , squares average = 28331.69523809524
frame # 13, length = 2205 [samples], average = 141.15328798185942 , squares average = 30423.628571428573
frame # 14, length = 2205 [samples], average = 120.35918367346939 , squares average = 25046.690249433108
frame # 15, length = 2205 [samples], average = 114.20090702947846 , squares average = 23562.519274376416
frame # 16, length = 2205 [samples], average = 123.92244897959183 , squares average = 26076.531972789115
frame # 17, length = 2205 [samples], average = 127.82585034013606 , squares average = 27535.786848072563
frame # 18, length = 2205 [samples], average = 126.43537414965986 , squares average = 26748.266666666666
frame # 19, length = 2205 [samples], average = 120.90113378684808 , squares average = 25558.0358276644
frame # 20, length = 2205 [samples], average = 126.90385487528344 , squares average = 27375.03628117914
frame # 21, length = 2205 [samples], average = 128.1764172335601 , squares average = 27369.589569161
frame # 22, length = 2205 [samples], average = 120.46802721088436 , squares average = 25744.42902494331
frame # 23, length = 2205 [samples], average = 123.26031746031747 , squares average = 26524.54648526077
frame # 24, length = 2205 [samples], average = 139.19002267573697 , squares average = 30404.950566893425
frame # 25, length = 2205 [samples], average = 135.92925170068028 , squares average = 28571.53560090703
frame # 26, length = 2205 [samples], average = 139.9451247165533 , squares average = 29863.306575963717
frame # 27, length = 2205 [samples], average = 126.7795918367347 , squares average = 27016.483900226758
frame # 28, length = 2205 [samples], average = 114.42857142857143 , squares average = 24774.01224489796
frame # 29, length = 2205 [samples], average = 128.11655328798187 , squares average = 28595.17052154195
frame # 30, length = 2205 [samples], average = 137.45578231292518 , squares average = 32595.669841269842
frame # 31, length = 2205 [samples], average = 133.19637188208617 , squares average = 31309.60544217687
frame # 32, length = 2205 [samples], average = 106.4235827664399 , squares average = 24618.026303854876
frame # 33, length = 2205 [samples], average = 135.63945578231292 , squares average = 30664.395011337867
frame # 34, length = 2205 [samples], average = 125.44263038548753 , squares average = 25796.4820861678
frame # 35, length = 2205 [samples], average = 125.52290249433106 , squares average = 26582.66031746032
frame # 36, length = 2205 [samples], average = 141.259410430839 , squares average = 30544.826757369614
frame # 37, length = 2205 [samples], average = 124.07755102040817 , squares average = 26122.631746031748
frame # 38, length = 2205 [samples], average = 122.07664399092971 , squares average = 26303.07074829932
frame # 39, length = 2205 [samples], average = 117.28979591836735 , squares average = 25254.460770975056
frame # 40, length = 2205 [samples], average = 102.84399092970521 , squares average = 21701.736507936508
frame # 41, length = 2205 [samples], average = 133.3845804988662 , squares average = 29955.05260770975
frame # 42, length = 2205 [samples], average = 132.40907029478458 , squares average = 28673.814058956916
frame # 43, length = 2205 [samples], average = 114.06485260770975 , squares average = 23584.72154195011
frame # 44, length = 2205 [samples], average = 116.70793650793651 , squares average = 24842.023129251702
frame # 45, length = 2205 [samples], average = 119.35328798185941 , squares average = 25966.02267573696
frame # 46, length = 2205 [samples], average = 129.20634920634922 , squares average = 27702.08798185941
frame # 47, length = 2205 [samples], average = 121.52108843537415 , squares average = 25540.564172335602
frame # 48, length = 2205 [samples], average = 123.55328798185941 , squares average = 26014.080272108844
frame # 49, length = 2205 [samples], average = 136.91655328798186 , squares average = 29156.21179138322
frame # 50, length = 2205 [samples], average = 129.19591836734693 , squares average = 27201.427210884354
frame # 51, length = 2205 [samples], average = 116.80045351473923 , squares average = 23470.062131519273
frame # 52, length = 2205 [samples], average = 131.8312925170068 , squares average = 28091.037641723357
frame # 53, length = 2205 [samples], average = 132.43174603174603 , squares average = 28811.432199546485
frame # 54, length = 2205 [samples], average = 126.4843537414966 , squares average = 27113.290702947845
frame # 55, length = 2205 [samples], average = 123.95192743764173 , squares average = 26203.15192743764
frame # 56, length = 2205 [samples], average = 130.81632653061226 , squares average = 28113.08117913832
frame # 57, length = 2205 [samples], average = 122.70566893424036 , squares average = 25848.313832199547
frame # 58, length = 2205 [samples], average = 136.5750566893424 , squares average = 29702.286621315194
frame # 59, length = 2205 [samples], average = 132.4920634920635 , squares average = 27905.45804988662
frame # 60, length = 2205 [samples], average = 143.82131519274375 , squares average = 30655.561904761904
frame # 61, length = 2205 [samples], average = 104.8875283446712 , squares average = 20580.736961451246
frame # 62, length = 2205 [samples], average = 154.10884353741497 , squares average = 33872.63673469388
frame # 63, length = 2205 [samples], average = 109.38321995464852 , squares average = 22736.010884353742
frame # 64, length = 2205 [samples], average = 139.3496598639456 , squares average = 31443.499319727893
frame # 65, length = 2205 [samples], average = 114.84081632653061 , squares average = 23326.903401360545
frame # 66, length = 2205 [samples], average = 127.63492063492063 , squares average = 26865.139682539684
frame # 67, length = 2205 [samples], average = 129.3968253968254 , squares average = 27772.625850340137
frame # 68, length = 2205 [samples], average = 115.47074829931972 , squares average = 24013.99863945578
frame # 69, length = 2205 [samples], average = 103.78911564625851 , squares average = 21060.749659863945
frame # 70, length = 2205 [samples], average = 123.11156462585033 , squares average = 26047.67664399093
frame # 71, length = 2205 [samples], average = 115.17369614512472 , squares average = 23498.956009070294
frame # 72, length = 2205 [samples], average = 118.10204081632654 , squares average = 24625.602267573697
frame # 73, length = 2205 [samples], average = 96.91337868480726 , squares average = 20301.95918367347
frame # 74, length = 2205 [samples], average = 130.33378684807255 , squares average = 27732.25759637188
frame # 75, length = 2205 [samples], average = 138.3469387755102 , squares average = 31440.248072562357
frame # 76, length = 2205 [samples], average = 156.081179138322 , squares average = 36827.619501133784
frame # 77, length = 2205 [samples], average = 120.47074829931972 , squares average = 27783.39410430839
frame # 78, length = 2205 [samples], average = 133.08163265306123 , squares average = 28588.62358276644
frame # 79, length = 2205 [samples], average = 121.36689342403628 , squares average = 25293.89297052154
frame # 80, length = 2205 [samples], average = 136.9687074829932 , squares average = 29660.54693877551
frame # 81, length = 2205 [samples], average = 127.68616780045352 , squares average = 27171.102947845804
frame # 82, length = 2205 [samples], average = 128.8780045351474 , squares average = 27290.848979591836
frame # 83, length = 2205 [samples], average = 128.5750566893424 , squares average = 27228.749206349206
frame # 84, length = 2205 [samples], average = 134.79455782312925 , squares average = 29405.98367346939
frame # 85, length = 2205 [samples], average = 128.04988662131518 , squares average = 27136.168707482993
frame # 86, length = 2205 [samples], average = 136.62312925170068 , squares average = 29598.618594104308
frame # 87, length = 2205 [samples], average = 130.3609977324263 , squares average = 27683.7514739229
frame # 88, length = 2205 [samples], average = 124.93151927437641 , squares average = 26349.710657596373
frame # 89, length = 2205 [samples], average = 109.57414965986395 , squares average = 22612.79410430839
frame # 90, length = 2205 [samples], average = 122.03356009070295 , squares average = 25743.631746031748
frame # 91, length = 2205 [samples], average = 141.57823129251702 , squares average = 31845.3768707483
frame # 92, length = 2205 [samples], average = 138.29614512471656 , squares average = 32554.93560090703
frame # 93, length = 2205 [samples], average = 95.76643990929705 , squares average = 22359.13424036281
frame # 94, length = 2205 [samples], average = 123.0843537414966 , squares average = 25882.943764172334
frame # 95, length = 2205 [samples], average = 116.2562358276644 , squares average = 24071.5768707483
frame # 96, length = 2205 [samples], average = 133.97142857142856 , squares average = 28821.73469387755
frame # 97, length = 2205 [samples], average = 106.27800453514739 , squares average = 22057.0126984127
frame # 98, length = 2205 [samples], average = 123.45079365079366 , squares average = 25590.390476190478
frame # 99, length = 2205 [samples], average = 112.41904761904762 , squares average = 23226.114285714284
frame # 100, length = 2205 [samples], average = 114.43764172335601 , squares average = 23787.92335600907
frame # 101, length = 2205 [samples], average = 122.84489795918367 , squares average = 26451.556916099773
frame # 102, length = 2205 [samples], average = 121.7750566893424 , squares average = 25512.396371882085
frame # 103, length = 2205 [samples], average = 116.4938775510204 , squares average = 24605.55963718821
frame # 104, length = 2205 [samples], average = 129.47619047619048 , squares average = 27565.24761904762
frame # 105, length = 2205 [samples], average = 119.98185941043084 , squares average = 25339.023129251702
frame # 106, length = 2205 [samples], average = 132.43219954648526 , squares average = 28209.29387755102
frame # 107, length = 2205 [samples], average = 128.50294784580498 , squares average = 27421.02993197279
frame # 108, length = 2205 [samples], average = 128.6077097505669 , squares average = 27366.91882086168
frame # 109, length = 2205 [samples], average = 122.86439909297052 , squares average = 26159.385034013605
frame # 110, length = 2205 [samples], average = 98.13968253968254 , squares average = 20389.592743764173
frame # 111, length = 2205 [samples], average = 124.48843537414966 , squares average = 26175.99410430839
frame # 112, length = 2205 [samples], average = 131.69206349206348 , squares average = 27461.509750566893
frame # 113, length = 2205 [samples], average = 124.2984126984127 , squares average = 26282.026303854876
frame # 114, length = 2205 [samples], average = 125.14285714285714 , squares average = 26193.356916099772
frame # 115, length = 2205 [samples], average = 129.3310657596372 , squares average = 27309.932426303854
frame # 116, length = 2205 [samples], average = 132.94285714285715 , squares average = 28348.98820861678
frame # 117, length = 2205 [samples], average = 129.11700680272108 , squares average = 27098.31337868481
frame # 118, length = 2205 [samples], average = 129.5873015873016 , squares average = 27684.001814058956
frame # 119, length = 2205 [samples], average = 129.5668934240363 , squares average = 27669.702040816326
frame # 120, length = 2205 [samples], average = 140.49160997732426 , squares average = 30208.55963718821
frame # 121, length = 2205 [samples], average = 132.21768707482994 , squares average = 28708.289342403627
frame # 122, length = 2205 [samples], average = 130.14920634920634 , squares average = 28893.595918367348
frame # 123, length = 2205 [samples], average = 144.74920634920636 , squares average = 32463.838548752836
frame # 124, length = 2205 [samples], average = 126.11337868480726 , squares average = 29282.959637188207
frame # 125, length = 2205 [samples], average = 115.31927437641724 , squares average = 26582.367800453514
frame # 126, length = 2205 [samples], average = 123.63492063492063 , squares average = 25973.255782312925
frame # 127, length = 2205 [samples], average = 114.75056689342404 , squares average = 23706.172789115648
frame # 128, length = 2205 [samples], average = 143.08344671201814 , squares average = 30238.52471655329
frame # 129, length = 2205 [samples], average = 139.67528344671203 , squares average = 29829.437641723354
frame # 130, length = 2205 [samples], average = 142.92607709750567 , squares average = 33212.614965986395
frame # 131, length = 2205 [samples], average = 120.93469387755103 , squares average = 27831.654875283446
frame # 132, length = 2205 [samples], average = 134.4530612244898 , squares average = 31436.11111111111
frame # 133, length = 2205 [samples], average = 144.15827664399092 , squares average = 33328.61814058957
frame # 134, length = 2205 [samples], average = 123.50748299319729 , squares average = 26192.52335600907
frame # 135, length = 2205 [samples], average = 113.8467120181406 , squares average = 23557.810430839003
frame # 136, length = 2205 [samples], average = 123.33650793650794 , squares average = 25787.846258503403
frame # 137, length = 2205 [samples], average = 124.25578231292516 , squares average = 26330.174149659862
frame # 138, length = 2205 [samples], average = 123.73514739229024 , squares average = 26472.18049886621
frame # 139, length = 2205 [samples], average = 118.79773242630385 , squares average = 25177.68752834467
frame # 140, length = 2205 [samples], average = 136.42539682539683 , squares average = 31104.149659863946
frame # 141, length = 2205 [samples], average = 126.78730158730158 , squares average = 28566.698412698413
frame # 142, length = 2205 [samples], average = 118.27165532879819 , squares average = 26915.32471655329
frame # 143, length = 2205 [samples], average = 144.24671201814058 , squares average = 32588.00725623583
frame # 144, length = 2205 [samples], average = 133.77551020408163 , squares average = 28840.315192743765
frame # 145, length = 2205 [samples], average = 117.01859410430839 , squares average = 24717.425850340136
frame # 146, length = 2205 [samples], average = 130.73786848072564 , squares average = 28041.66303854875
frame # 147, length = 2205 [samples], average = 117.037641723356 , squares average = 24421.433106575965
frame # 148, length = 2205 [samples], average = 132.140589569161 , squares average = 28196.77641723356
frame # 149, length = 2205 [samples], average = 127.89569160997732 , squares average = 27399.022222222222
frame # 150, length = 2205 [samples], average = 121.03537414965986 , squares average = 25070.693424036283
frame # 151, length = 2205 [samples], average = 127.93741496598639 , squares average = 27166.696598639457
frame # 152, length = 2205 [samples], average = 125.30657596371883 , squares average = 26612.65260770975
frame # 153, length = 2205 [samples], average = 107.52108843537415 , squares average = 23052.044444444444
frame # 154, length = 2205 [samples], average = 126.10385487528345 , squares average = 26632.526530612246
frame # 155, length = 2205 [samples], average = 125.77732426303855 , squares average = 26481.620408163264
frame # 156, length = 2205 [samples], average = 124.67301587301587 , squares average = 25607.35328798186
frame # 157, length = 2205 [samples], average = 128.59501133786847 , squares average = 26659.24716553288
frame # 158, length = 2205 [samples], average = 128.8281179138322 , squares average = 26949.043083900226
frame # 159, length = 2205 [samples], average = 128.24081632653062 , squares average = 27296.909297052152
frame # 160, length = 2205 [samples], average = 122.64580498866214 , squares average = 25695.495691609976
frame # 161, length = 2205 [samples], average = 151.30430839002267 , squares average = 33820.14965986394
frame # 162, length = 2205 [samples], average = 126.65668934240362 , squares average = 26526.573242630384
frame # 163, length = 2205 [samples], average = 107.13560090702948 , squares average = 21967.8231292517
frame # 164, length = 2205 [samples], average = 125.26802721088436 , squares average = 27813.732426303854
frame # 165, length = 2205 [samples], average = 121.81269841269841 , squares average = 27420.519274376416
frame # 166, length = 2205 [samples], average = 131.7034013605442 , squares average = 28045.436734693878
frame # 167, length = 2205 [samples], average = 123.96825396825396 , squares average = 26601.847619047618
frame # 168, length = 2205 [samples], average = 137.67800453514738 , squares average = 29369.792290249432
frame # 169, length = 2205 [samples], average = 130.41360544217687 , squares average = 27495.345124716554
frame # 170, length = 2205 [samples], average = 131.71337868480725 , squares average = 28196.42358276644
frame # 171, length = 2205 [samples], average = 118.92108843537414 , squares average = 24793.805442176872
frame # 172, length = 2205 [samples], average = 146.9310657596372 , squares average = 32067.765532879817
frame # 173, length = 2205 [samples], average = 131.34331065759636 , squares average = 28065.750566893425
frame # 174, length = 2205 [samples], average = 121.07165532879819 , squares average = 25290.11746031746
frame # 175, length = 2205 [samples], average = 134.75736961451247 , squares average = 29904.632199546486
frame # 176, length = 2205 [samples], average = 125.52879818594104 , squares average = 26222.0358276644
frame # 177, length = 2205 [samples], average = 109.00408163265305 , squares average = 21819.990022675738
frame # 178, length = 2205 [samples], average = 134.01133786848072 , squares average = 29056.209070294786
frame # 179, length = 2205 [samples], average = 101.74784580498866 , squares average = 21385.81224489796
frame # 180, length = 2205 [samples], average = 159.94104308390024 , squares average = 36205.42040816326
frame # 181, length = 2205 [samples], average = 127.67891156462585 , squares average = 27801.326984126983
frame # 182, length = 2205 [samples], average = 133.31746031746033 , squares average = 28708.985487528345
frame # 183, length = 2205 [samples], average = 124.16281179138322 , squares average = 26502.2
frame # 184, length = 2205 [samples], average = 130.42585034013607 , squares average = 28237.648526077097
frame # 185, length = 2205 [samples], average = 122.74467120181406 , squares average = 26966.73469387755
frame # 186, length = 2205 [samples], average = 113.8607709750567 , squares average = 25821.245804988663
frame # 187, length = 2205 [samples], average = 147.2639455782313 , squares average = 34533.731972789115
frame # 188, length = 2205 [samples], average = 146.20272108843537 , squares average = 35643.88344671202
frame # 189, length = 2205 [samples], average = 140.29433106575965 , squares average = 34330.9074829932
frame # 190, length = 2205 [samples], average = 125.02721088435374 , squares average = 26531.17777777778
frame # 191, length = 2205 [samples], average = 131.1922902494331 , squares average = 28427.42902494331
frame # 192, length = 2205 [samples], average = 128.09750566893425 , squares average = 26843.409070294783
frame # 193, length = 2205 [samples], average = 132.1641723356009 , squares average = 27313.04761904762
frame # 194, length = 2205 [samples], average = 99.99455782312926 , squares average = 20020.946031746033
frame # 195, length = 2205 [samples], average = 119.99909297052154 , squares average = 25765.646258503402
frame # 196, length = 2205 [samples], average = 127.68526077097506 , squares average = 27828.97596371882
frame # 197, length = 2205 [samples], average = 124.74195011337868 , squares average = 27808.04081632653
frame # 198, length = 2205 [samples], average = 117.48707482993197 , squares average = 24386.808616780047
frame # 199, length = 2205 [samples], average = 121.96916099773243 , squares average = 26057.1410430839
