frame # 0, length = 2205 [samples], average = 128.09024943310658 , squares average = 30738.05124716553
frame # 1, length = 2205 [samples], average = 165.11609977324264 , squares average = 40721.97324263039
frame # 2, length = 2205 [samples], average = 116.05124716553289 , squares average = 28431.415419501132
frame # 3, length = 2205 [samples], average = 150.23219954648525 , squares average = 37464.9052154195
frame # 4, length = 2205 [samples], average = 153.1297052154195 , squares average = 37996.162811791386
frame # 5, length = 2205 [samples], average = 167.4485260770975 , squares average = 42114.21315192744
frame # 6, length = 2205 [samples], average = 126.1968253968254 , squares average = 31637.385034013605
frame # 7, length = 2205 [samples], average = 78.14920634920635 , squares average = 19409.578684807257
frame # 8, length = 2205 [samples], average = 82.44172335600906 , squares average = 20198.890702947847
frame # 9, length = 2205 [samples], average = 109.91655328798186 , squares average = 27161.75873015873
frame # 10, length = 2205 [samples], average = 139.04126984126984 , squares average = 34422.64126984127
frame # 11, length = 2205 [samples], average = 114.45170068027211 , squares average = 27744.946031746033
frame # 12, length = 2205 [samples], average = 142.081179138322 , squares average = 34293.40725623583
frame # 13, length = 2205 [samples], average = 124.04897959183674 , squares average = 29791.693424036283
frame # 14, length = 2205 [samples], average = 128.16734693877552 , squares average = 30476.80589569161
frame # 15, length = 2205 [samples], average = 131.97868480725623 , squares average = 31518.972789115647
frame # 16, length = 2205 [samples], average = 129.11065759637188 , squares average = 30479.075283446713
frame # 17, length = 2205 [samples], average = 144.07755102040815 , squares average = 34237.17052154195
frame # 18, length = 2205 [samples], average = 99.60045351473923 , squares average = 22685.6820861678
frame # 19, length = 2205 [samples], average = 152.84580498866214 , squares average = 36417.87256235828
frame # 20, length = 2205 [samples], average = 103.31292517006803 , squares average = 23445.432653061223
frame # 21, length = 2205 [samples], average = 152.46621315192743 , squares average = 35915.95464852608
frame # 22, length = 2205 [samples], average = 105.67165532879818 , squares average = 24157.704308390024
frame # 23, length = 2205 [samples], average = 142.70884353741496 , squares average = 33581.561451247166
frame # 24, length = 2205 [samples], average = 104.21179138321996 , squares average = 23660.784126984126
frame # 25, length = 2205 [samples], average = 143.7891156462585 , squares average = 34042.688888888886
frame # 26, length = 2205 [samples], average = 105.28390022675737 , squares average = 24257.225850340135
frame # 27, length = 2205 [samples], average = 153.88798185941044 , squares average = 36900.208163265306
frame # 28, length = 2205 [samples], average = 116.10113378684807 , squares average = 27314.374149659863
frame # 29, length = 2205 [samples], average = 145.1809523809524 , squares average = 35225.66439909297
frame # 30, length = 2205 [samples], average = 94.18231292517007 , squares average = 22275.538321995464
frame # 31, length = 2205 [samples], average = 139.11065759637188 , squares average = 34123.29206349207
frame # 32, length = 2205 [samples], average = 86.83990929705216 , squares average = 20847.16916099773
frame # 33, length = 2205 [samples], average = 174.1668934240363 , squares average = 43614.879818594105
frame # 34, length = 2205 [samples], average = 122.51292517006803 , squares average = 30621.7410430839
frame # 35, length = 2205 [samples], average = 111.85306122448979 , squares average = 28174.618594104308
frame # 36, length = 2205 [samples], average = 118.21768707482993 , squares average = 29749.64807256236
frame # 37, length = 2205 [samples], average = 140.29931972789115 , squares average = 35423.212698412695
frame # 38, length = 2205 [samples], average = 109.92562358276643 , squares average = 27302.845351473923
frame # 39, length = 2205 [samples], average = 107.59002267573696 , squares average = 26382.679365079366
frame # 40, length = 2205 [samples], average = 107.88072562358276 , squares average = 26220.47029478458
frame # 41, length = 2205 [samples], average = 128.42947845804989 , squares average = 31394.389569160998
frame # 42, length = 2205 [samples], average = 126.0 , squares average = 30601.295238095237
frame # 43, length = 2205 [samples], average = 144.81768707482993 , squares average = 35152.22358276644
frame # 44, length = 2205 [samples], average = 125.42040816326531 , squares average = 29600.338321995463
frame # 45, length = 2205 [samples], average = 146.6077097505669 , squares average = 35155.96734693878
frame # 46, length = 2205 [samples], average = 107.61360544217688 , squares average = 24772.345578231292
frame # 47, length = 2205 [samples], average = 146.87074829931973 , squares average = 34883.695238095235
frame # 48, length = 2205 [samples], average = 106.40045351473923 , squares average = 24203.620408163264
frame # 49, length = 2205 [samples], average = 149.48707482993197 , squares average = 35311.4798185941
frame # 50, length = 2205 [samples], average = 100.00181405895691 , squares average = 22645.703401360544
frame # 51, length = 2205 [samples], average = 149.2702947845805 , squares average = 34937.27120181406
frame # 52, length = 2205 [samples], average = 99.52834467120181 , squares average = 22518.472562358278
frame # 53, length = 2205 [samples], average = 147.03219954648526 , squares average = 34567.169160997735
frame # 54, length = 2205 [samples], average = 106.70702947845805 , squares average = 24461.056235827666
frame # 55, length = 2205 [samples], average = 145.50068027210884 , squares average = 34551.43174603175
frame # 56, length = 2205 [samples], average = 110.01950113378685 , squares average = 25500.219047619048
frame # 57, length = 2205 [samples], average = 150.9061224489796 , squares average = 36013.18911564626
frame # 58, length = 2205 [samples], average = 107.2766439909297 , squares average = 25180.204535147393
frame # 59, length = 2205 [samples], average = 133.77551020408163 , squares average = 32289.367346938776
frame # 60, length = 2205 [samples], average = 84.15600907029479 , squares average = 19766.802721088436
frame # 61, length = 2205 [samples], average = 150.26666666666668 , squares average = 37092.04263038549
frame # 62, length = 2205 [samples], average = 115.47165532879819 , squares average = 28103.190476190477
frame # 63, length = 2205 [samples], average = 164.43628117913832 , squares average = 41005.666213151926
frame # 64, length = 2205 [samples], average = 64.38231292517007 , squares average = 15600.32335600907
frame # 65, length = 2205 [samples], average = 104.70839002267574 , squares average = 26234.250340136055
frame # 66, length = 2205 [samples], average = 141.40589569160997 , squares average = 35517.88752834467
frame # 67, length = 2205 [samples], average = 86.47210884353741 , squares average = 21483.822675736963
frame # 68, length = 2205 [samples], average = 124.23537414965986 , squares average = 31018.528344671202
frame # 69, length = 2205 [samples], average = 126.25079365079365 , squares average = 31363.786394557825
frame # 70, length = 2205 [samples], average = 147.60408163265305 , squares average = 36556.461224489794
frame # 71, length = 2205 [samples], average = 137.5142857142857 , squares average = 33722.22993197279
frame # 72, length = 2205 [samples], average = 120.15555555555555 , squares average = 28871.756462585035
frame # 73, length = 2205 [samples], average = 141.4734693877551 , squares average = 33925.643990929704
frame # 74, length = 2205 [samples], average = 109.68798185941043 , squares average = 25790.208616780044
frame # 75, length = 2205 [samples], average = 150.9206349206349 , squares average = 36244.060770975055
frame # 76, length = 2205 [samples], average = 108.45034013605442 , squares average = 25122.245351473925
frame # 77, length = 2205 [samples], average = 140.459410430839 , squares average = 33179.53242630386
frame # 78, length = 2205 [samples], average = 109.20544217687075 , squares average = 25164.019954648527
frame # 79, length = 2205 [samples], average = 149.77142857142857 , squares average = 35164.86530612245
frame # 80, length = 2205 [samples], average = 107.34739229024943 , squares average = 24287.596825396824
frame # 81, length = 2205 [samples], average = 146.26938775510203 , squares average = 34461.68979591837
frame # 82, length = 2205 [samples], average = 105.07437641723357 , squares average = 24149.86439909297
frame # 83, length = 2205 [samples], average = 142.85079365079366 , squares average = 33596.247619047615
frame # 84, length = 2205 [samples], average = 96.38321995464852 , squares average = 21772.17006802721
frame # 85, length = 2205 [samples], average = 141.6172335600907 , squares average = 33439.11201814059
frame # 86, length = 2205 [samples], average = 102.9891156462585 , squares average = 23622.015873015873
frame # 87, length = 2205 [samples], average = 154.6031746031746 , squares average = 37095.12743764172
frame # 88, length = 2205 [samples], average = 113.53696145124717 , squares average = 26962.273469387754
frame # 89, length = 2205 [samples], average = 150.615873015873 , squares average = 36753.42222222222
frame # 90, length = 2205 [samples], average = 101.28390022675737 , squares average = 24267.907936507938
frame # 91, length = 2205 [samples], average = 129.0607709750567 , squares average = 31691.255782312925
frame # 92, length = 2205 [samples], average = 134.88662131519274 , squares average = 33160.87845804988
frame # 93, length = 2205 [samples], average = 114.11519274376417 , squares average = 28176.54693877551
frame # 94, length = 2205 [samples], average = 140.62721088435373 , squares average = 35298.159183673466
frame # 95, length = 2205 [samples], average = 65.32789115646258 , squares average = 16258.084353741497
frame # 96, length = 2205 [samples], average = 155.00136054421768 , squares average = 39123.88934240363
frame # 97, length = 2205 [samples], average = 97.9687074829932 , squares average = 24509.307482993197
frame # 98, length = 2205 [samples], average = 114.4766439909297 , squares average = 28468.80498866213
frame # 99, length = 2205 [samples], average = 105.58049886621315 , squares average = 25911.144217687073
frame # 100, length = 2205 [samples], average = 127.12018140589569 , squares average = 30998.286621315194
frame # 101, length = 2205 [samples], average = 144.28843537414966 , squares average = 35184.51337868481
frame # 102, length = 2205 [samples], average = 114.47074829931972 , squares average = 27399.218140589568
frame # 103, length = 2205 [samples], average = 147.99455782312924 , squares average = 35993.48934240363
frame # 104, length = 2205 [samples], average = 94.74013605442177 , squares average = 21999.326984126983
frame # 105, length = 2205 [samples], average = 135.73015873015873 , squares average = 32388.407709750565
frame # 106, length = 2205 [samples], average = 95.22222222222223 , squares average = 21542.2462585034
frame # 107, length = 2205 [samples], average = 151.30748299319728 , squares average = 35618.142857142855
frame # 108, length = 2205 [samples], average = 100.32108843537415 , squares average = 22666.21678004535
frame # 109, length = 2205 [samples], average = 145.06575963718822 , squares average = 34202.136961451244
frame # 110, length = 2205 [samples], average = 103.37233560090704 , squares average = 23474.357369614514
frame # 111, length = 2205 [samples], average = 146.762358276644 , squares average = 34450.83310657596
frame # 112, length = 2205 [samples], average = 104.11292517006802 , squares average = 23596.615419501133
frame # 113, length = 2205 [samples], average = 146.96281179138322 , squares average = 34569.18684807256
frame # 114, length = 2205 [samples], average = 103.73469387755102 , squares average = 23609.84716553288
frame # 115, length = 2205 [samples], average = 154.95600907029478 , squares average = 36803.541043083904
frame # 116, length = 2205 [samples], average = 112.73786848072562 , squares average = 26181.88163265306
frame # 117, length = 2205 [samples], average = 150.18548752834468 , squares average = 36216.18458049887
frame # 118, length = 2205 [samples], average = 106.04897959183674 , squares average = 25152.265759637186
frame # 119, length = 2205 [samples], average = 127.24580498866213 , squares average = 30639.419954648525
frame # 120, length = 2205 [samples], average = 96.72108843537416 , squares average = 23038.976870748298
frame # 121, length = 2205 [samples], average = 155.9469387755102 , squares average = 38636.24444444444
frame # 122, length = 2205 [samples], average = 131.5424036281179 , squares average = 32768.8231292517
frame # 123, length = 2205 [samples], average = 156.9283446712018 , squares average = 39142.72970521542
frame # 124, length = 2205 [samples], average = 199.22312925170067 , squares average = 50143.35283446712
frame # 125, length = 2205 [samples], average = 220.4956916099773 , squares average = 55149.06984126984
frame # 126, length = 2205 [samples], average = 204.60272108843537 , squares average = 51035.68752834467
frame # 127, length = 2205 [samples], average = 144.2702947845805 , squares average = 35748.90340136054
frame # 128, length = 2205 [samples], average = 75.92380952380952 , squares average = 18284.068027210884
frame # 129, length = 2205 [samples], average = 103.7591836734694 , squares average = 25182.767800453516
frame # 130, length = 2205 [samples], average = 60.43219954648526 , squares average = 14072.237188208617
frame # 131, length = 2205 [samples], average = 94.5954648526077 , squares average = 22298.744217687075
frame # 132, length = 2205 [samples], average = 86.04308390022676 , squares average = 20208.102040816328
frame # 133, length = 2205 [samples], average = 128.08435374149659 , squares average = 30611.451247165533
frame # 134, length = 2205 [samples], average = 110.31383219954648 , squares average = 25585.14195011338
frame # 135, length = 2205 [samples], average = 143.8965986394558 , squares average = 34004.84807256236
frame # 136, length = 2205 [samples], average = 98.06485260770975 , squares average = 21991.233106575964
frame # 137, length = 2205 [samples], average = 153.15056689342404 , squares average = 36094.00045351474
frame # 138, length = 2205 [samples], average = 103.54829931972789 , squares average = 23365.8358276644
frame # 139, length = 2205 [samples], average = 144.67755102040817 , squares average = 33637.356009070296
frame # 140, length = 2205 [samples], average = 101.93378684807256 , squares average = 22867.657142857144
frame # 141, length = 2205 [samples], average = 146.6875283446712 , squares average = 34219.07210884354
frame # 142, length = 2205 [samples], average = 100.85396825396825 , squares average = 22742.59365079365
frame # 143, length = 2205 [samples], average = 145.41360544217687 , squares average = 34385.63038548753
frame # 144, length = 2205 [samples], average = 108.57460317460317 , squares average = 24993.83083900227
frame # 145, length = 2205 [samples], average = 152.56190476190477 , squares average = 36437.38548752834
frame # 146, length = 2205 [samples], average = 122.20816326530613 , squares average = 28902.881179138323
frame # 147, length = 2205 [samples], average = 110.4734693877551 , squares average = 26358.898866213152
frame # 148, length = 2205 [samples], average = 107.63854875283447 , squares average = 25731.66394557823
frame # 149, length = 2205 [samples], average = 150.67845804988661 , squares average = 36950.109750566895
frame # 150, length = 2205 [samples], average = 115.49795918367347 , squares average = 28302.504761904762
frame # 151, length = 2205 [samples], average = 102.21496598639456 , squares average = 25028.097959183673
frame # 152, length = 2205 [samples], average = 137.18956916099773 , squares average = 34121.32471655329
frame # 153, length = 2205 [samples], average = 133.2965986394558 , squares average = 33321.78639455782
frame # 154, length = 2205 [samples], average = 73.01133786848072 , squares average = 17954.54240362812
frame # 155, length = 2205 [samples], average = 90.83673469387755 , squares average = 22379.83083900227
frame # 156, length = 2205 [samples], average = 177.73832199546484 , squares average = 44821.07437641724
frame # 157, length = 2205 [samples], average = 75.93832199546485 , squares average = 18794.926077097505
frame # 158, length = 2205 [samples], average = 153.14965986394557 , squares average = 38041.45623582767
frame # 159, length = 2205 [samples], average = 137.67256235827665 , squares average = 33659.939229024945
frame # 160, length = 2205 [samples], average = 116.11609977324262 , squares average = 28049.402267573696
frame # 161, length = 2205 [samples], average = 149.9968253968254 , squares average = 36349.727437641726
frame # 162, length = 2205 [samples], average = 111.71383219954649 , squares average = 26485.551473922904
frame # 163, length = 2205 [samples], average = 149.07619047619048 , squares average = 35659.77278911565
frame # 164, length = 2205 [samples], average = 98.10566893424036 , squares average = 22385.5052154195
frame # 165, length = 2205 [samples], average = 152.33877551020407 , squares average = 36174.84126984127
frame # 166, length = 2205 [samples], average = 101.68934240362812 , squares average = 22951.942403628116
frame # 167, length = 2205 [samples], average = 157.74648526077098 , squares average = 37213.72108843538
frame # 168, length = 2205 [samples], average = 109.34693877551021 , squares average = 24926.690249433108
frame # 169, length = 2205 [samples], average = 150.6643990929705 , squares average = 35387.40725623583
frame # 170, length = 2205 [samples], average = 95.52108843537415 , squares average = 21508.962358276643
frame # 171, length = 2205 [samples], average = 153.6439909297052 , squares average = 36267.08798185941
frame # 172, length = 2205 [samples], average = 102.33968253968254 , squares average = 23235.14784580499
frame # 173, length = 2205 [samples], average = 147.0063492063492 , squares average = 34770.319727891154
frame # 174, length = 2205 [samples], average = 102.74240362811791 , squares average = 23743.547845804987
frame # 175, length = 2205 [samples], average = 144.54421768707482 , squares average = 34481.44943310657
frame # 176, length = 2205 [samples], average = 110.38639455782312 , squares average = 25945.74693877551
frame # 177, length = 2205 [samples], average = 125.94058956916099 , squares average = 30362.672562358275
frame # 178, length = 2205 [samples], average = 128.41496598639455 , squares average = 31158.944671201814
frame # 179, length = 2205 [samples], average = 132.13696145124717 , squares average = 32191.18276643991
frame # 180, length = 2205 [samples], average = 143.50521541950113 , squares average = 35326.22811791383
frame # 181, length = 2205 [samples], average = 70.25532879818594 , squares average = 16978.249886621314
frame # 182, length = 2205 [samples], average = 201.1705215419501 , squares average = 50359.56870748299
frame # 183, length = 2205 [samples], average = 84.58095238095238 , squares average = 20991.169614512473
frame # 184, length = 2205 [samples], average = 144.17868480725625 , squares average = 36240.80544217687
frame # 185, length = 2205 [samples], average = 10.18684807256236 , squares average = 1687.1655328798186
frame # 186, length = 2205 [samples], average = 149.99727891156462 , squares average = 37462.94693877551
frame # 187, length = 2205 [samples], average = 98.96507936507936 , squares average = 24051.350566893423
frame # 188, length = 2205 [samples], average = 136.2390022675737 , squares average = 33565.780952380956
frame # 189, length = 2205 [samples], average = 118.32380952380953 , squares average = 28931.044897959182
frame # 190, length = 2205 [samples], average = 120.79637188208616 , squares average = 29133.097505668935
frame # 191, length = 2205 [samples], average = 138.02857142857144 , squares average = 33250.42494331066
frame # 192, length = 2205 [samples], average = 105.18866213151928 , squares average = 24498.435827664398
frame # 193, length = 2205 [samples], average = 156.2639455782313 , squares average = 37539.91111111111
frame # 194, length = 2205 [samples], average = 111.20362811791384 , squares average = 25759.209977324263
frame # 195, length = 2205 [samples], average = 150.7215419501134 , squares average = 35631.06439909297
frame # 196, length = 2205 [samples], average = 109.3437641723356 , squares average = 25157.038095238095
frame # 197, length = 2205 [samples], average = 154.65351473922902 , squares average = 36620.409523809525
frame # 198, length = 2205 [samples], average = 104.08163265306122 , squares average = 23664.078004535146
frame # 199, length = 2205 [samples], average = 148.35374149659864 , squares average = 34784.11247165533
