frame # 0, length = 2205 [samples], average = 152.16734693877552 , squares average = 37593.19138321996
frame # 1, length = 2205 [samples], average = 159.46213151927438 , squares average = 39219.19274376417
frame # 2, length = 2205 [samples], average = 112.9328798185941 , squares average = 27405.24126984127
frame # 3, length = 2205 [samples], average = 157.44444444444446 , squares average = 38827.920634920636
frame # 4, length = 2205 [samples], average = 101.75102040816327 , squares average = 24710.15192743764
frame # 5, length = 2205 [samples], average = 168.86303854875283 , squares average = 41987.81904761905
frame # 6, length = 2205 [samples], average = 105.92199546485261 , squares average = 25774.450793650794
frame # 7, length = 2205 [samples], average = 140.16780045351473 , squares average = 34454.64489795918
frame # 8, length = 2205 [samples], average = 92.55600907029478 , squares average = 22373.4820861678
frame # 9, length = 2205 [samples], average = 146.96689342403627 , squares average = 36184.9641723356
frame # 10, length = 2205 [samples], average = 101.39319727891156 , squares average = 24622.785487528345
frame # 11, length = 2205 [samples], average = 145.4 , squares average = 35663.25034013605
frame # 12, length = 2205 [samples], average = 92.00680272108843 , squares average = 22156.707936507937
frame # 13, length = 2205 [samples], average = 148.93968253968254 , squares average = 36845.869387755105
frame # 14, length = 2205 [samples], average = 106.63401360544218 , squares average = 25775.814965986396
frame # 15, length = 2205 [samples], average = 160.1156462585034 , squares average = 39327.89977324263
frame # 16, length = 2205 [samples], average = 103.3156462585034 , squares average = 24905.836281179138
frame # 17, length = 2205 [samples], average = 154.80544217687074 , squares average = 38189.19909297052
frame # 18, length = 2205 [samples], average = 97.89433106575964 , squares average = 23571.63673469388
frame # 19, length = 2205 [samples], average = 155.26303854875283 , squares average = 38393.780952380956
frame # 20, length = 2205 [samples], average = 115.35918367346939 , squares average = 28370.243537414965
frame # 21, length = 2205 [samples], average = 136.5891156462585 , squares average = 33748.48299319728
frame # 22, length = 2205 [samples], average = 108.54875283446712 , squares average = 26487.538321995464
frame # 23, length = 2205 [samples], average = 135.16643990929705 , squares average = 33172.77641723356
frame # 24, length = 2205 [samples], average = 97.41315192743764 , squares average = 23463.851247165534
frame # 25, length = 2205 [samples], average = 153.19727891156464 , squares average = 37791.78231292517
frame # 26, length = 2205 [samples], average = 109.61179138321995 , squares average = 26551.873015873014
frame # 27, length = 2205 [samples], average = 156.48390022675736 , squares average = 38546.09024943311
frame # 28, length = 2205 [samples], average = 110.86167800453515 , squares average = 27083.57097505669
frame # 29, length = 2205 [samples], average = 141.1278911564626 , squares average = 34758.54195011338
frame # 30, length = 2205 [samples], average = 89.24308390022675 , squares average = 21260.702494331064
frame # 31, length = 2205 [samples], average = 158.15600907029477 , squares average = 38900.23945578231
frame # 32, length = 2205 [samples], average = 100.25850340136054 , squares average = 24347.28888888889
frame # 33, length = 2205 [samples], average = 155.9061224489796 , squares average = 38570.86666666667
frame # 34, length = 2205 [samples], average = 107.99818594104309 , squares average = 26425.398639455783
frame # 35, length = 2205 [samples], average = 158.70430839002267 , squares average = 39034.55646258503
frame # 36, length = 2205 [samples], average = 89.85351473922903 , squares average = 21698.26984126984
frame # 37, length = 2205 [samples], average = 149.84126984126985 , squares average = 36927.56734693878
frame # 38, length = 2205 [samples], average = 99.58140589569162 , squares average = 23928.13560090703
frame # 39, length = 2205 [samples], average = 146.87120181405896 , squares average = 36094.526530612246
frame # 40, length = 2205 [samples], average = 111.93877551020408 , squares average = 27164.895691609978
frame # 41, length = 2205 [samples], average = 148.39138321995466 , squares average = 36574.120181405895
frame # 42, length = 2205 [samples], average = 99.44988662131519 , squares average = 23978.219954648524
frame # 43, length = 2205 [samples], average = 149.94739229024944 , squares average = 36846.76553287982
frame # 44, length = 2205 [samples], average = 106.05578231292517 , squares average = 25665.0462585034
frame # 45, length = 2205 [samples], average = 147.49478458049887 , squares average = 36233.96553287982
frame # 46, length = 2205 [samples], average = 96.30340136054421 , squares average = 23329.92335600907
frame # 47, length = 2205 [samples], average = 149.83990929705215 , squares average = 36971.07619047619
frame # 48, length = 2205 [samples], average = 112.80861678004536 , squares average = 27588.45396825397
frame # 49, length = 2205 [samples], average = 165.18775510204082 , squares average = 40738.26712018141
frame # 50, length = 2205 [samples], average = 94.38548752834467 , squares average = 22715.194557823128
frame # 51, length = 2205 [samples], average = 150.06394557823128 , squares average = 36939.863492063494
frame # 52, length = 2205 [samples], average = 103.67392290249433 , squares average = 24955.410884353743
frame # 53, length = 2205 [samples], average = 154.17596371882087 , squares average = 38095.05941043084
frame # 54, length = 2205 [samples], average = 107.20997732426304 , squares average = 26037.66439909297
frame # 55, length = 2205 [samples], average = 155.62947845804987 , squares average = 38301.58866213152
frame # 56, length = 2205 [samples], average = 93.89659863945579 , squares average = 22429.704308390024
frame # 57, length = 2205 [samples], average = 148.02448979591836 , squares average = 36622.54693877551
frame # 58, length = 2205 [samples], average = 100.50385487528345 , squares average = 24185.502494331067
frame # 59, length = 2205 [samples], average = 143.9170068027211 , squares average = 35317.27029478458
frame # 60, length = 2205 [samples], average = 95.79727891156463 , squares average = 23193.15782312925
frame # 61, length = 2205 [samples], average = 145.13514739229024 , squares average = 35706.4231292517
frame # 62, length = 2205 [samples], average = 104.03628117913833 , squares average = 25373.484807256234
frame # 63, length = 2205 [samples], average = 153.28707482993198 , squares average = 37937.59274376417
frame # 64, length = 2205 [samples], average = 104.02267573696145 , squares average = 25181.731519274377
frame # 65, length = 2205 [samples], average = 143.78684807256235 , squares average = 35470.05079365079
frame # 66, length = 2205 [samples], average = 98.15918367346939 , squares average = 23727.754648526075
frame # 67, length = 2205 [samples], average = 146.83174603174604 , squares average = 36262.733786848075
frame # 68, length = 2205 [samples], average = 99.73650793650793 , squares average = 24078.693424036283
frame # 69, length = 2205 [samples], average = 139.79637188208616 , squares average = 34292.38231292517
frame # 70, length = 2205 [samples], average = 108.2734693877551 , squares average = 26477.820861678003
frame # 71, length = 2205 [samples], average = 154.31746031746033 , squares average = 38056.76371882086
frame # 72, length = 2205 [samples], average = 95.27074829931973 , squares average = 22878.490702947845
frame # 73, length = 2205 [samples], average = 140.00090702947847 , squares average = 34352.22585034014
frame # 74, length = 2205 [samples], average = 71.70566893424036 , squares average = 16594.707029478457
frame # 75, length = 2205 [samples], average = 106.3424036281179 , squares average = 24837.521541950115
frame # 76, length = 2205 [samples], average = 69.33333333333333 , squares average = 11850.851700680272
frame # 77, length = 2205 [samples], average = 157.70068027210885 , squares average = 34767.69614512472
frame # 78, length = 2205 [samples], average = 185.7047619047619 , squares average = 43150.875736961454
frame # 79, length = 2205 [samples], average = 207.55056689342405 , squares average = 49354.49206349206
frame # 80, length = 2205 [samples], average = 153.14603174603175 , squares average = 35431.96235827664
frame # 81, length = 2205 [samples], average = 171.25034013605443 , squares average = 36626.12108843537
frame # 82, length = 2205 [samples], average = 210.16916099773243 , squares average = 46310.56462585034
frame # 83, length = 2205 [samples], average = 228.97052154195012 , squares average = 53163.9873015873
frame # 84, length = 2205 [samples], average = 241.32380952380953 , squares average = 59663.88253968254
frame # 85, length = 2205 [samples], average = 11.829931972789115 , squares average = 402.2643990929705
frame # 86, length = 2205 [samples], average = 15.55328798185941 , squares average = 567.1451247165533
frame # 87, length = 2205 [samples], average = 11.746485260770974 , squares average = 333.7283446712018
frame # 88, length = 2205 [samples], average = 14.073469387755102 , squares average = 479.60090702947844
frame # 89, length = 2205 [samples], average = 12.30748299319728 , squares average = 372.9678004535147
frame # 90, length = 2205 [samples], average = 11.073922902494331 , squares average = 594.3990929705216
frame # 91, length = 2205 [samples], average = 11.000907029478459 , squares average = 693.6675736961452
frame # 92, length = 2205 [samples], average = 11.478004535147392 , squares average = 665.1006802721089
frame # 93, length = 2205 [samples], average = 59.99455782312925 , squares average = 14014.54784580499
frame # 94, length = 2205 [samples], average = 48.52743764172335 , squares average = 10820.507482993196
frame # 95, length = 2205 [samples], average = 89.51700680272108 , squares average = 21601.808163265305
frame # 96, length = 2205 [samples], average = 87.58548752834467 , squares average = 20881.439455782314
frame # 97, length = 2205 [samples], average = 126.47709750566894 , squares average = 31051.196371882084
frame # 98, length = 2205 [samples], average = 83.20907029478458 , squares average = 19727.928344671203
frame # 99, length = 2205 [samples], average = 117.13968253968254 , squares average = 28924.903854875283
frame # 100, length = 2205 [samples], average = 93.540589569161 , squares average = 22243.913378684807
frame # 101, length = 2205 [samples], average = 140.5718820861678 , squares average = 34512.3514739229
frame # 102, length = 2205 [samples], average = 95.50113378684807 , squares average = 23020.88888888889
frame # 103, length = 2205 [samples], average = 127.24172335600908 , squares average = 31205.28979591837
frame # 104, length = 2205 [samples], average = 94.00136054421769 , squares average = 22787.691156462584
frame # 105, length = 2205 [samples], average = 137.4408163265306 , squares average = 34007.91972789116
frame # 106, length = 2205 [samples], average = 97.75283446712018 , squares average = 23928.74149659864
frame # 107, length = 2205 [samples], average = 141.9265306122449 , squares average = 35080.49977324263
frame # 108, length = 2205 [samples], average = 101.66439909297053 , squares average = 24749.70612244898
frame # 109, length = 2205 [samples], average = 142.2657596371882 , squares average = 35023.80136054422
frame # 110, length = 2205 [samples], average = 104.10068027210885 , squares average = 25492.05986394558
frame # 111, length = 2205 [samples], average = 146.30612244897958 , squares average = 36004.263492063496
frame # 112, length = 2205 [samples], average = 102.80997732426304 , squares average = 24739.73605442177
frame # 113, length = 2205 [samples], average = 138.45532879818595 , squares average = 34062.272108843536
frame # 114, length = 2205 [samples], average = 92.28707482993197 , squares average = 22340.820408163265
frame # 115, length = 2205 [samples], average = 134.86258503401362 , squares average = 33139.362358276645
frame # 116, length = 2205 [samples], average = 111.26530612244898 , squares average = 27223.797732426305
frame # 117, length = 2205 [samples], average = 145.00362811791382 , squares average = 35675.87619047619
frame # 118, length = 2205 [samples], average = 117.68299319727892 , squares average = 28757.16507936508
frame # 119, length = 2205 [samples], average = 129.81315192743764 , squares average = 32061.17006802721
frame # 120, length = 2205 [samples], average = 89.6390022675737 , squares average = 21872.1641723356
frame # 121, length = 2205 [samples], average = 146.90385487528346 , squares average = 36265.218594104306
frame # 122, length = 2205 [samples], average = 119.99909297052154 , squares average = 29584.61678004535
frame # 123, length = 2205 [samples], average = 146.37596371882086 , squares average = 36031.6947845805
frame # 124, length = 2205 [samples], average = 106.4938775510204 , squares average = 25908.066666666666
frame # 125, length = 2205 [samples], average = 140.79365079365078 , squares average = 34540.954195011334
frame # 126, length = 2205 [samples], average = 111.40680272108844 , squares average = 27222.46621315193
frame # 127, length = 2205 [samples], average = 137.74240362811793 , squares average = 34006.368253968256
frame # 128, length = 2205 [samples], average = 117.43265306122449 , squares average = 28817.812698412698
frame # 129, length = 2205 [samples], average = 147.76371882086167 , squares average = 36490.2462585034
frame # 130, length = 2205 [samples], average = 98.9891156462585 , squares average = 23882.719727891155
frame # 131, length = 2205 [samples], average = 158.1809523809524 , squares average = 39188.29342403628
frame # 132, length = 2205 [samples], average = 108.08616780045351 , squares average = 26256.739229024945
frame # 133, length = 2205 [samples], average = 149.14920634920634 , squares average = 36870.343764172336
frame # 134, length = 2205 [samples], average = 106.7578231292517 , squares average = 25952.861224489796
frame # 135, length = 2205 [samples], average = 140.55419501133787 , squares average = 34787.05306122449
frame # 136, length = 2205 [samples], average = 101.88344671201814 , squares average = 24917.68662131519
frame # 137, length = 2205 [samples], average = 134.99727891156462 , squares average = 33178.524716553286
frame # 138, length = 2205 [samples], average = 115.02448979591837 , squares average = 27977.309297052154
frame # 139, length = 2205 [samples], average = 161.70975056689343 , squares average = 40118.13605442177
frame # 140, length = 2205 [samples], average = 115.1328798185941 , squares average = 28151.572789115646
frame # 141, length = 2205 [samples], average = 149.15374149659863 , squares average = 36923.33605442177
frame # 142, length = 2205 [samples], average = 104.6657596371882 , squares average = 25489.465759637187
frame # 143, length = 2205 [samples], average = 146.97868480725623 , squares average = 36220.56507936508
frame # 144, length = 2205 [samples], average = 109.88843537414967 , squares average = 26677.46394557823
frame # 145, length = 2205 [samples], average = 149.69659863945577 , squares average = 36871.59410430839
frame # 146, length = 2205 [samples], average = 112.92743764172336 , squares average = 27440.408616780045
frame # 147, length = 2205 [samples], average = 136.99002267573695 , squares average = 33821.54693877551
frame # 148, length = 2205 [samples], average = 105.48979591836735 , squares average = 25714.697959183675
frame # 149, length = 2205 [samples], average = 148.1705215419501 , squares average = 36648.97324263039
frame # 150, length = 2205 [samples], average = 125.58004535147393 , squares average = 30834.403628117914
frame # 151, length = 2205 [samples], average = 137.71247165532878 , squares average = 34019.056689342404
frame # 152, length = 2205 [samples], average = 102.69886621315193 , squares average = 24955.175056689342
frame # 153, length = 2205 [samples], average = 139.90566893424037 , squares average = 34523.863038548756
frame # 154, length = 2205 [samples], average = 124.1922902494331 , squares average = 30534.71746031746
frame # 155, length = 2205 [samples], average = 152.8702947845805 , squares average = 37986.555555555555
frame # 156, length = 2205 [samples], average = 108.46802721088436 , squares average = 26402.856235827665
frame # 157, length = 2205 [samples], average = 126.43854875283446 , squares average = 31220.213605442175
frame # 158, length = 2205 [samples], average = 102.20861678004535 , squares average = 24776.490702947845
frame # 159, length = 2205 [samples], average = 118.24263038548753 , squares average = 28725.591383219955
frame # 160, length = 2205 [samples], average = 109.81541950113379 , squares average = 26740.48117913832
frame # 161, length = 2205 [samples], average = 133.0362811791383 , squares average = 32785.68843537415
frame # 162, length = 2205 [samples], average = 105.96281179138322 , squares average = 25846.487074829933
frame # 163, length = 2205 [samples], average = 138.29115646258504 , squares average = 34026.995011337865
frame # 164, length = 2205 [samples], average = 117.51655328798186 , squares average = 28930.168707482993
frame # 165, length = 2205 [samples], average = 154.22222222222223 , squares average = 38149.52925170068
frame # 166, length = 2205 [samples], average = 92.2031746031746 , squares average = 22346.916099773243
frame # 167, length = 2205 [samples], average = 138.9201814058957 , squares average = 34313.50612244898
frame # 168, length = 2205 [samples], average = 110.5061224489796 , squares average = 27207.131972789117
frame # 169, length = 2205 [samples], average = 148.259410430839 , squares average = 36616.27301587302
frame # 170, length = 2205 [samples], average = 113.86122448979592 , squares average = 27799.380498866212
frame # 171, length = 2205 [samples], average = 143.36643990929704 , squares average = 35251.63038548753
frame # 172, length = 2205 [samples], average = 100.91111111111111 , squares average = 24493.387301587303
frame # 173, length = 2205 [samples], average = 143.79546485260772 , squares average = 35315.90612244898
frame # 174, length = 2205 [samples], average = 117.50521541950113 , squares average = 28613.64580498866
frame # 175, length = 2205 [samples], average = 140.80725623582765 , squares average = 34634.247619047615
frame # 176, length = 2205 [samples], average = 102.87619047619047 , squares average = 25039.907482993196
frame # 177, length = 2205 [samples], average = 143.07437641723357 , squares average = 35274.54376417233
frame # 178, length = 2205 [samples], average = 101.71156462585034 , squares average = 24867.717006802723
frame # 179, length = 2205 [samples], average = 126.87256235827664 , squares average = 31011.05124716553
frame # 180, length = 2205 [samples], average = 107.44399092970522 , squares average = 26283.6589569161
frame # 181, length = 2205 [samples], average = 155.19954648526078 , squares average = 38323.44807256236
frame # 182, length = 2205 [samples], average = 117.01859410430839 , squares average = 28663.824943310658
frame # 183, length = 2205 [samples], average = 137.31020408163266 , squares average = 33813.38639455782
frame # 184, length = 2205 [samples], average = 111.35011337868481 , squares average = 27538.26621315193
frame # 185, length = 2205 [samples], average = 132.88163265306122 , squares average = 32648.41904761905
frame # 186, length = 2205 [samples], average = 106.12108843537415 , squares average = 25777.867120181407
frame # 187, length = 2205 [samples], average = 140.35238095238094 , squares average = 34421.84535147392
frame # 188, length = 2205 [samples], average = 117.54149659863945 , squares average = 28681.312925170067
frame # 189, length = 2205 [samples], average = 139.28480725623584 , squares average = 34266.68979591837
frame # 190, length = 2205 [samples], average = 122.06938775510204 , squares average = 29736.291609977325
frame # 191, length = 2205 [samples], average = 128.30839002267572 , squares average = 31450.051700680273
frame # 192, length = 2205 [samples], average = 130.30340136054423 , squares average = 32256.881179138323
frame # 193, length = 2205 [samples], average = 128.71655328798187 , squares average = 31698.979591836734
frame # 194, length = 2205 [samples], average = 118.05034013605442 , squares average = 28951.46439909297
frame # 195, length = 2205 [samples], average = 113.85442176870748 , squares average = 27735.95873015873
frame # 196, length = 2205 [samples], average = 114.98185941043084 , squares average = 28142.439455782314
frame # 197, length = 2205 [samples], average = 127.35056689342403 , squares average = 31417.05215419501
frame # 198, length = 2205 [samples], average = 123.63310657596372 , squares average = 30418.527437641722
frame # 199, length = 2205 [samples], average = 142.8825396825397 , squares average = 35066.725623582766
