frame # 0, length = 2205 [samples], average = 108.90022675736961 , squares average = 25651.07619047619
frame # 1, length = 2205 [samples], average = 152.45714285714286 , squares average = 37231.36780045352
frame # 2, length = 2205 [samples], average = 102.58367346938776 , squares average = 24445.249433106575
frame # 3, length = 2205 [samples], average = 141.5628117913832 , squares average = 34597.286167800456
frame # 4, length = 2205 [samples], average = 107.84308390022676 , squares average = 25793.404081632652
frame # 5, length = 2205 [samples], average = 154.90566893424037 , squares average = 37878.391383219954
frame # 6, length = 2205 [samples], average = 103.64081632653061 , squares average = 24795.18276643991
frame # 7, length = 2205 [samples], average = 152.13741496598638 , squares average = 37081.715646258504
frame # 8, length = 2205 [samples], average = 108.21904761904761 , squares average = 25931.643990929704
frame # 9, length = 2205 [samples], average = 149.15102040816328 , squares average = 36187.1410430839
frame # 10, length = 2205 [samples], average = 92.71655328798185 , squares average = 21807.025850340135
frame # 11, length = 2205 [samples], average = 167.60997732426304 , squares average = 40448.81541950113
frame # 12, length = 2205 [samples], average = 130.13832199546485 , squares average = 27220.380498866212
frame # 13, length = 2205 [samples], average = 119.83990929705216 , squares average = 26591.372789115645
frame # 14, length = 2205 [samples], average = 102.59274376417234 , squares average = 24067.898866213152
frame # 15, length = 2205 [samples], average = 155.26893424036282 , squares average = 37458.26303854875
frame # 16, length = 2205 [samples], average = 105.30249433106576 , squares average = 24694.608616780046
frame # 17, length = 2205 [samples], average = 139.1954648526077 , squares average = 31183.609070294784
frame # 18, length = 2205 [samples], average = 118.42993197278912 , squares average = 26438.977777777778
frame # 19, length = 2205 [samples], average = 149.6639455782313 , squares average = 36011.10612244898
frame # 20, length = 2205 [samples], average = 113.56235827664399 , squares average = 26448.41133786848
frame # 21, length = 2205 [samples], average = 136.89297052154194 , squares average = 30001.48979591837
frame # 22, length = 2205 [samples], average = 118.32108843537415 , squares average = 24553.668934240362
frame # 23, length = 2205 [samples], average = 136.26303854875283 , squares average = 32209.867573696145
frame # 24, length = 2205 [samples], average = 108.12426303854875 , squares average = 25426.665759637188
frame # 25, length = 2205 [samples], average = 142.94195011337868 , squares average = 34316.85487528345
frame # 26, length = 2205 [samples], average = 119.40680272108844 , squares average = 24671.87664399093
frame # 27, length = 2205 [samples], average = 129.5015873015873 , squares average = 28801.045351473924
frame # 28, length = 2205 [samples], average = 108.76643990929705 , squares average = 25518.290249433107
frame # 29, length = 2205 [samples], average = 144.81950113378684 , squares average = 34921.723809523806
frame # 30, length = 2205 [samples], average = 103.14149659863945 , squares average = 24089.07709750567
frame # 31, length = 2205 [samples], average = 150.40907029478458 , squares average = 35917.14829931973
frame # 32, length = 2205 [samples], average = 125.00589569160998 , squares average = 27097.309750566892
frame # 33, length = 2205 [samples], average = 135.2734693877551 , squares average = 30261.28344671202
frame # 34, length = 2205 [samples], average = 128.59183673469389 , squares average = 29149.12970521542
frame # 35, length = 2205 [samples], average = 150.0530612244898 , squares average = 35050.474829931976
frame # 36, length = 2205 [samples], average = 111.36734693877551 , squares average = 25943.6693877551
frame # 37, length = 2205 [samples], average = 149.24625850340135 , squares average = 35099.28072562358
frame # 38, length = 2205 [samples], average = 109.38639455782312 , squares average = 25417.456235827663
frame # 39, length = 2205 [samples], average = 150.86984126984126 , squares average = 36125.1664399093
frame # 40, length = 2205 [samples], average = 102.79319727891156 , squares average = 23779.72380952381
frame # 41, length = 2205 [samples], average = 149.95011337868482 , squares average = 35835.07573696145
frame # 42, length = 2205 [samples], average = 112.64761904761905 , squares average = 25999.60453514739
frame # 43, length = 2205 [samples], average = 147.9655328798186 , squares average = 35525.537414965984
frame # 44, length = 2205 [samples], average = 118.63492063492063 , squares average = 25456.161451247164
frame # 45, length = 2205 [samples], average = 125.75600907029478 , squares average = 26674.027210884353
frame # 46, length = 2205 [samples], average = 118.74784580498866 , squares average = 25135.9052154195
frame # 47, length = 2205 [samples], average = 127.13378684807256 , squares average = 28879.113832199546
frame # 48, length = 2205 [samples], average = 104.45895691609978 , squares average = 24056.21768707483
frame # 49, length = 2205 [samples], average = 130.09659863945578 , squares average = 27904.053968253967
frame # 50, length = 2205 [samples], average = 128.19637188208617 , squares average = 27328.72335600907
frame # 51, length = 2205 [samples], average = 124.69659863945579 , squares average = 26184.06439909297
frame # 52, length = 2205 [samples], average = 126.45124716553288 , squares average = 26811.74648526077
frame # 53, length = 2205 [samples], average = 153.22222222222223 , squares average = 36211.62857142857
frame # 54, length = 2205 [samples], average = 103.81451247165533 , squares average = 23945.148752834466
frame # 55, length = 2205 [samples], average = 151.55827664399092 , squares average = 36179.48480725624
frame # 56, length = 2205 [samples], average = 105.84943310657596 , squares average = 24559.56371882086
frame # 57, length = 2205 [samples], average = 150.35691609977323 , squares average = 35912.81496598639
frame # 58, length = 2205 [samples], average = 106.67528344671202 , squares average = 24668.99909297052
frame # 59, length = 2205 [samples], average = 149.54920634920634 , squares average = 35704.55782312925
frame # 60, length = 2205 [samples], average = 93.84716553287981 , squares average = 21459.28117913832
frame # 61, length = 2205 [samples], average = 161.9687074829932 , squares average = 38858.237188208615
frame # 62, length = 2205 [samples], average = 128.41451247165534 , squares average = 27517.454875283445
frame # 63, length = 2205 [samples], average = 123.13560090702948 , squares average = 25827.81133786848
frame # 64, length = 2205 [samples], average = 128.10566893424036 , squares average = 27386.043990929706
frame # 65, length = 2205 [samples], average = 129.06757369614513 , squares average = 27508.126077097506
frame # 66, length = 2205 [samples], average = 123.57596371882086 , squares average = 26080.717006802723
frame # 67, length = 2205 [samples], average = 128.30249433106576 , squares average = 27346.43038548753
frame # 68, length = 2205 [samples], average = 123.73514739229024 , squares average = 26143.162811791382
frame # 69, length = 2205 [samples], average = 127.60181405895692 , squares average = 27248.915192743763
frame # 70, length = 2205 [samples], average = 123.61043083900226 , squares average = 26368.856689342403
frame # 71, length = 2205 [samples], average = 128.90702947845804 , squares average = 27515.730612244897
frame # 72, length = 2205 [samples], average = 121.39002267573696 , squares average = 25698.57006802721
frame # 73, length = 2205 [samples], average = 130.63673469387754 , squares average = 27861.862131519276
frame # 74, length = 2205 [samples], average = 111.12471655328798 , squares average = 25271.08934240363
frame # 75, length = 2205 [samples], average = 148.82902494331066 , squares average = 35622.0798185941
frame # 76, length = 2205 [samples], average = 98.87619047619047 , squares average = 22796.525170068027
frame # 77, length = 2205 [samples], average = 159.1546485260771 , squares average = 38277.96553287982
frame # 78, length = 2205 [samples], average = 105.44761904761904 , squares average = 24715.843990929705
frame # 79, length = 2205 [samples], average = 149.21360544217688 , squares average = 35771.63446712018
frame # 80, length = 2205 [samples], average = 103.4920634920635 , squares average = 24001.29886621315
frame # 81, length = 2205 [samples], average = 147.30612244897958 , squares average = 35307.822222222225
frame # 82, length = 2205 [samples], average = 128.39727891156463 , squares average = 27342.972335600905
frame # 83, length = 2205 [samples], average = 127.12471655328798 , squares average = 27025.46394557823
frame # 84, length = 2205 [samples], average = 128.41904761904763 , squares average = 27302.137868480724
frame # 85, length = 2205 [samples], average = 128.71655328798187 , squares average = 27400.744671201814
frame # 86, length = 2205 [samples], average = 128.20680272108842 , squares average = 27497.10476190476
frame # 87, length = 2205 [samples], average = 130.10657596371883 , squares average = 27857.448072562358
frame # 88, length = 2205 [samples], average = 124.97460317460317 , squares average = 26668.844897959185
frame # 89, length = 2205 [samples], average = 129.27165532879818 , squares average = 27736.02993197279
frame # 90, length = 2205 [samples], average = 127.00634920634921 , squares average = 27195.09342403628
frame # 91, length = 2205 [samples], average = 126.7092970521542 , squares average = 27086.00090702948
frame # 92, length = 2205 [samples], average = 127.75419501133787 , squares average = 27081.89297052154
frame # 93, length = 2205 [samples], average = 128.44308390022675 , squares average = 27468.9537414966
frame # 94, length = 2205 [samples], average = 126.48163265306123 , squares average = 26758.589569161
frame # 95, length = 2205 [samples], average = 128.78095238095239 , squares average = 27534.8589569161
frame # 96, length = 2205 [samples], average = 127.52925170068028 , squares average = 27174.103401360546
frame # 97, length = 2205 [samples], average = 130.0612244897959 , squares average = 27813.26485260771
frame # 98, length = 2205 [samples], average = 123.18458049886621 , squares average = 25925.967346938774
frame # 99, length = 2205 [samples], average = 128.13242630385488 , squares average = 27264.510657596373
frame # 100, length = 2205 [samples], average = 128.81043083900227 , squares average = 27641.614965986395
frame # 101, length = 2205 [samples], average = 128.41632653061225 , squares average = 27201.519274376416
frame # 102, length = 2205 [samples], average = 125.68798185941043 , squares average = 26677.36961451247
frame # 103, length = 2205 [samples], average = 128.64172335600907 , squares average = 27340.2126984127
frame # 104, length = 2205 [samples], average = 126.88208616780045 , squares average = 26914.243537414965
frame # 105, length = 2205 [samples], average = 128.48798185941044 , squares average = 27291.97097505669
frame # 106, length = 2205 [samples], average = 125.40997732426304 , squares average = 26686.32426303855
frame # 107, length = 2205 [samples], average = 128.28163265306122 , squares average = 27637.039002267575
frame # 108, length = 2205 [samples], average = 126.43129251700681 , squares average = 27131.936961451247
frame # 109, length = 2205 [samples], average = 131.18321995464854 , squares average = 28010.7514739229
frame # 110, length = 2205 [samples], average = 126.93197278911565 , squares average = 27000.056689342404
frame # 111, length = 2205 [samples], average = 130.59410430839003 , squares average = 28111.77142857143
frame # 112, length = 2205 [samples], average = 129.8562358276644 , squares average = 27830.29433106576
frame # 113, length = 2205 [samples], average = 129.91383219954648 , squares average = 27881.609070294784
frame # 114, length = 2205 [samples], average = 127.92607709750567 , squares average = 27194.59546485261
frame # 115, length = 2205 [samples], average = 123.30113378684807 , squares average = 25843.579591836733
frame # 116, length = 2205 [samples], average = 131.20408163265307 , squares average = 28071.37551020408
frame # 117, length = 2205 [samples], average = 127.5546485260771 , squares average = 27415.589115646257
frame # 118, length = 2205 [samples], average = 124.83492063492064 , squares average = 26534.877551020407
frame # 119, length = 2205 [samples], average = 137.86031746031745 , squares average = 30728.510657596373
frame # 120, length = 2205 [samples], average = 96.85124716553288 , squares average = 22214.53378684807
frame # 121, length = 2205 [samples], average = 151.95238095238096 , squares average = 36660.39501133787
frame # 122, length = 2205 [samples], average = 106.32834467120182 , squares average = 25034.21859410431
frame # 123, length = 2205 [samples], average = 150.0748299319728 , squares average = 36281.07074829932
frame # 124, length = 2205 [samples], average = 102.83038548752835 , squares average = 24218.373242630387
frame # 125, length = 2205 [samples], average = 155.15918367346939 , squares average = 37555.645351473926
frame # 126, length = 2205 [samples], average = 106.0952380952381 , squares average = 24950.68299319728
frame # 127, length = 2205 [samples], average = 150.2077097505669 , squares average = 36250.15238095238
frame # 128, length = 2205 [samples], average = 104.66757369614513 , squares average = 24624.456235827663
frame # 129, length = 2205 [samples], average = 149.2253968253968 , squares average = 36056.13333333333
frame # 130, length = 2205 [samples], average = 106.90113378684808 , squares average = 25232.33605442177
frame # 131, length = 2205 [samples], average = 150.2671201814059 , squares average = 36287.60952380952
frame # 132, length = 2205 [samples], average = 102.20498866213151 , squares average = 24073.887528344672
frame # 133, length = 2205 [samples], average = 151.2544217687075 , squares average = 36611.600907029475
frame # 134, length = 2205 [samples], average = 106.73242630385488 , squares average = 25201.2947845805
frame # 135, length = 2205 [samples], average = 149.21179138321995 , squares average = 35972.79818594104
frame # 136, length = 2205 [samples], average = 104.00680272108843 , squares average = 24368.006802721087
frame # 137, length = 2205 [samples], average = 149.40498866213153 , squares average = 36003.726077097504
frame # 138, length = 2205 [samples], average = 104.17233560090703 , squares average = 24406.99410430839
frame # 139, length = 2205 [samples], average = 153.78049886621315 , squares average = 37075.33242630385
frame # 140, length = 2205 [samples], average = 104.5718820861678 , squares average = 24579.163265306124
frame # 141, length = 2205 [samples], average = 152.75419501133786 , squares average = 36796.34784580499
frame # 142, length = 2205 [samples], average = 101.91383219954649 , squares average = 23808.4925170068
frame # 143, length = 2205 [samples], average = 151.12471655328798 , squares average = 36404.021768707484
frame # 144, length = 2205 [samples], average = 105.64671201814059 , squares average = 24871.484353741496
frame # 145, length = 2205 [samples], average = 153.55873015873016 , squares average = 37011.103401360546
frame # 146, length = 2205 [samples], average = 104.10793650793651 , squares average = 24443.980952380953
frame # 147, length = 2205 [samples], average = 152.75283446712018 , squares average = 36779.27981859411
frame # 148, length = 2205 [samples], average = 100.73560090702948 , squares average = 23535.997278911564
frame # 149, length = 2205 [samples], average = 152.67528344671203 , squares average = 36749.13151927438
frame # 150, length = 2205 [samples], average = 103.39319727891156 , squares average = 24214.727437641723
frame # 151, length = 2205 [samples], average = 151.82403628117913 , squares average = 36766.089795918364
frame # 152, length = 2205 [samples], average = 105.81950113378684 , squares average = 24955.41768707483
frame # 153, length = 2205 [samples], average = 152.77278911564625 , squares average = 37016.74648526077
frame # 154, length = 2205 [samples], average = 104.62721088435374 , squares average = 24788.843990929705
frame # 155, length = 2205 [samples], average = 152.98639455782313 , squares average = 37302.596371882086
frame # 156, length = 2205 [samples], average = 103.081179138322 , squares average = 24630.273922902496
frame # 157, length = 2205 [samples], average = 154.5002267573696 , squares average = 37847.92789115646
frame # 158, length = 2205 [samples], average = 103.00136054421769 , squares average = 24632.82358276644
frame # 159, length = 2205 [samples], average = 152.90249433106575 , squares average = 37521.46848072563
frame # 160, length = 2205 [samples], average = 104.98049886621315 , squares average = 25257.207256235826
frame # 161, length = 2205 [samples], average = 150.71791383219954 , squares average = 36837.029931972786
frame # 162, length = 2205 [samples], average = 105.14739229024943 , squares average = 25222.262131519274
frame # 163, length = 2205 [samples], average = 149.8639455782313 , squares average = 36701.56099773243
frame # 164, length = 2205 [samples], average = 101.78412698412698 , squares average = 24416.336507936507
frame # 165, length = 2205 [samples], average = 148.15918367346939 , squares average = 36240.17641723356
frame # 166, length = 2205 [samples], average = 97.83310657596373 , squares average = 23551.280725623583
frame # 167, length = 2205 [samples], average = 157.25306122448978 , squares average = 38729.668480725624
frame # 168, length = 2205 [samples], average = 98.4843537414966 , squares average = 23763.81224489796
frame # 169, length = 2205 [samples], average = 152.26213151927436 , squares average = 37360.957823129254
frame # 170, length = 2205 [samples], average = 99.62766439909296 , squares average = 23990.443990929703
frame # 171, length = 2205 [samples], average = 148.05442176870747 , squares average = 36269.539229024944
frame # 172, length = 2205 [samples], average = 101.25396825396825 , squares average = 24468.248979591837
frame # 173, length = 2205 [samples], average = 149.36190476190475 , squares average = 36678.10113378685
frame # 174, length = 2205 [samples], average = 104.85351473922903 , squares average = 25251.01224489796
frame # 175, length = 2205 [samples], average = 147.3514739229025 , squares average = 36142.920634920636
frame # 176, length = 2205 [samples], average = 103.58231292517007 , squares average = 25024.638095238097
frame # 177, length = 2205 [samples], average = 150.4172335600907 , squares average = 36918.54693877551
frame # 178, length = 2205 [samples], average = 100.26802721088436 , squares average = 24025.10702947846
frame # 179, length = 2205 [samples], average = 157.14557823129252 , squares average = 38587.32879818594
frame # 180, length = 2205 [samples], average = 101.41224489795918 , squares average = 24324.845351473923
frame # 181, length = 2205 [samples], average = 149.6643990929705 , squares average = 36733.23446712018
frame # 182, length = 2205 [samples], average = 108.82902494331066 , squares average = 26206.361904761903
frame # 183, length = 2205 [samples], average = 155.6439909297052 , squares average = 38261.96054421768
frame # 184, length = 2205 [samples], average = 102.09206349206349 , squares average = 24473.93424036281
frame # 185, length = 2205 [samples], average = 152.86077097505668 , squares average = 37570.29024943311
frame # 186, length = 2205 [samples], average = 103.05804988662132 , squares average = 24835.97505668934
frame # 187, length = 2205 [samples], average = 157.16507936507938 , squares average = 38663.11247165533
frame # 188, length = 2205 [samples], average = 100.49931972789116 , squares average = 24216.697052154195
frame # 189, length = 2205 [samples], average = 141.24761904761905 , squares average = 34471.52607709751
frame # 190, length = 2205 [samples], average = 105.71201814058956 , squares average = 25563.83083900227
frame # 191, length = 2205 [samples], average = 155.87437641723355 , squares average = 38397.643990929704
frame # 192, length = 2205 [samples], average = 98.78548752834467 , squares average = 23759.421315192743
frame # 193, length = 2205 [samples], average = 138.89750566893423 , squares average = 33888.074829931975
frame # 194, length = 2205 [samples], average = 98.43990929705215 , squares average = 23529.8358276644
frame # 195, length = 2205 [samples], average = 153.52562358276643 , squares average = 37644.18231292517
frame # 196, length = 2205 [samples], average = 105.60725623582766 , squares average = 25444.351020408165
frame # 197, length = 2205 [samples], average = 151.27528344671202 , squares average = 37240.660317460315
frame # 198, length = 2205 [samples], average = 103.8172335600907 , squares average = 25031.718367346937
frame # 199, length = 2205 [samples], average = 153.2766439909297 , squares average = 37634.95918367347
