frame # 0, length = 2205 [samples], average = 107.03310657596371 , squares average = 24721.9873015873
frame # 1, length = 2205 [samples], average = 105.70204081632653 , squares average = 24448.99455782313
frame # 2, length = 2205 [samples], average = 147.71065759637187 , squares average = 35398.25487528345
frame # 3, length = 2205 [samples], average = 115.28934240362811 , squares average = 27263.17052154195
frame # 4, length = 2205 [samples], average = 102.7437641723356 , squares average = 24700.99863945578
frame # 5, length = 2205 [samples], average = 127.46621315192743 , squares average = 30720.262585034012
frame # 6, length = 2205 [samples], average = 102.00498866213152 , squares average = 24051.60680272109
frame # 7, length = 2205 [samples], average = 158.9387755102041 , squares average = 38856.11700680272
frame # 8, length = 2205 [samples], average = 107.79002267573696 , squares average = 25483.409977324263
frame # 9, length = 2205 [samples], average = 134.4657596371882 , squares average = 32581.00090702948
frame # 10, length = 2205 [samples], average = 123.62448979591836 , squares average = 29773.131065759637
frame # 11, length = 2205 [samples], average = 119.19727891156462 , squares average = 28470.292970521543
frame # 12, length = 2205 [samples], average = 136.27891156462584 , squares average = 32940.36598639456
frame # 13, length = 2205 [samples], average = 130.04353741496598 , squares average = 30906.37097505669
frame # 14, length = 2205 [samples], average = 148.297052154195 , squares average = 35500.70068027211
frame # 15, length = 2205 [samples], average = 102.3687074829932 , squares average = 24049.169614512473
frame # 16, length = 2205 [samples], average = 135.9750566893424 , squares average = 32155.321088435376
frame # 17, length = 2205 [samples], average = 104.96825396825396 , squares average = 24321.88888888889
frame # 18, length = 2205 [samples], average = 168.05668934240362 , squares average = 40157.420861678
frame # 19, length = 2205 [samples], average = 113.64489795918368 , squares average = 26275.491609977325
frame # 20, length = 2205 [samples], average = 140.48208616780045 , squares average = 33120.03673469388
frame # 21, length = 2205 [samples], average = 103.84353741496598 , squares average = 23265.319274376416
frame # 22, length = 2205 [samples], average = 142.09750566893425 , squares average = 33416.29160997732
frame # 23, length = 2205 [samples], average = 98.61224489795919 , squares average = 22383.37777777778
frame # 24, length = 2205 [samples], average = 121.60226757369614 , squares average = 27996.575510204082
frame # 25, length = 2205 [samples], average = 103.82267573696146 , squares average = 23586.863945578232
frame # 26, length = 2205 [samples], average = 156.1950113378685 , squares average = 36875.55011337868
frame # 27, length = 2205 [samples], average = 107.20952380952382 , squares average = 24968.030385487527
frame # 28, length = 2205 [samples], average = 141.58231292517007 , squares average = 33454.5746031746
frame # 29, length = 2205 [samples], average = 142.84308390022676 , squares average = 34156.79410430839
frame # 30, length = 2205 [samples], average = 113.05442176870748 , squares average = 26660.311564625852
frame # 31, length = 2205 [samples], average = 128.47256235827663 , squares average = 30854.18684807256
frame # 32, length = 2205 [samples], average = 102.44489795918368 , squares average = 24076.325170068027
frame # 33, length = 2205 [samples], average = 101.962358276644 , squares average = 24474.368707482994
frame # 34, length = 2205 [samples], average = 143.4467120181406 , squares average = 35074.86258503401
frame # 35, length = 2205 [samples], average = 117.99319727891157 , squares average = 28721.34829931973
frame # 36, length = 2205 [samples], average = 143.0562358276644 , squares average = 34664.368707482994
frame # 37, length = 2205 [samples], average = 130.6503401360544 , squares average = 31489.522902494333
frame # 38, length = 2205 [samples], average = 130.5156462585034 , squares average = 31506.297052154194
frame # 39, length = 2205 [samples], average = 140.7891156462585 , squares average = 34078.623129251704
frame # 40, length = 2205 [samples], average = 121.71383219954649 , squares average = 29140.851247165534
frame # 41, length = 2205 [samples], average = 133.70839002267573 , squares average = 32114.401360544216
frame # 42, length = 2205 [samples], average = 154.54149659863947 , squares average = 37103.55827664399
frame # 43, length = 2205 [samples], average = 183.10521541950112 , squares average = 44494.59274376417
frame # 44, length = 2205 [samples], average = 138.78730158730158 , squares average = 33287.33514739229
frame # 45, length = 2205 [samples], average = 102.05351473922903 , squares average = 23827.45759637188
frame # 46, length = 2205 [samples], average = 143.33242630385487 , squares average = 34407.391383219954
frame # 47, length = 2205 [samples], average = 104.82403628117913 , squares average = 24257.54149659864
frame # 48, length = 2205 [samples], average = 128.1795918367347 , squares average = 30061.81133786848
frame # 49, length = 2205 [samples], average = 105.34512471655329 , squares average = 24007.127437641724
frame # 50, length = 2205 [samples], average = 135.91564625850341 , squares average = 31534.41904761905
frame # 51, length = 2205 [samples], average = 99.4108843537415 , squares average = 22527.503401360544
frame # 52, length = 2205 [samples], average = 130.40861678004535 , squares average = 31046.0358276644
frame # 53, length = 2205 [samples], average = 114.60907029478459 , squares average = 25627.159637188208
frame # 54, length = 2205 [samples], average = 136.1732426303855 , squares average = 31036.939682539683
frame # 55, length = 2205 [samples], average = 83.93197278911565 , squares average = 18497.419501133787
frame # 56, length = 2205 [samples], average = 135.25986394557822 , squares average = 32201.203628117913
frame # 57, length = 2205 [samples], average = 126.74195011337868 , squares average = 30540.136054421768
frame # 58, length = 2205 [samples], average = 140.4575963718821 , squares average = 32897.85986394558
frame # 59, length = 2205 [samples], average = 123.03854875283447 , squares average = 28334.725623582766
frame # 60, length = 2205 [samples], average = 129.83990929705215 , squares average = 30768.883900226756
frame # 61, length = 2205 [samples], average = 100.89297052154195 , squares average = 23961.60680272109
frame # 62, length = 2205 [samples], average = 145.9206349206349 , squares average = 35326.86848072562
frame # 63, length = 2205 [samples], average = 103.48662131519275 , squares average = 24765.39410430839
frame # 64, length = 2205 [samples], average = 139.7047619047619 , squares average = 33885.878004535145
frame # 65, length = 2205 [samples], average = 124.37324263038549 , squares average = 29633.031746031746
frame # 66, length = 2205 [samples], average = 131.65532879818593 , squares average = 32025.348752834467
frame # 67, length = 2205 [samples], average = 110.6126984126984 , squares average = 26496.454875283445
frame # 68, length = 2205 [samples], average = 132.09478458049887 , squares average = 32218.522902494333
frame # 69, length = 2205 [samples], average = 137.84943310657596 , squares average = 33168.52154195011
frame # 70, length = 2205 [samples], average = 127.76190476190476 , squares average = 30593.27120181406
frame # 71, length = 2205 [samples], average = 119.51473922902494 , squares average = 28461.244444444445
frame # 72, length = 2205 [samples], average = 155.81179138321994 , squares average = 37374.56916099773
frame # 73, length = 2205 [samples], average = 124.6625850340136 , squares average = 29586.896598639454
frame # 74, length = 2205 [samples], average = 149.04761904761904 , squares average = 35835.44489795918
frame # 75, length = 2205 [samples], average = 134.97097505668935 , squares average = 31852.226303854874
frame # 76, length = 2205 [samples], average = 157.73378684807255 , squares average = 37678.51383219955
frame # 77, length = 2205 [samples], average = 99.57959183673469 , squares average = 22104.455782312925
frame # 78, length = 2205 [samples], average = 149.06984126984128 , squares average = 35483.70839002268
frame # 79, length = 2205 [samples], average = 98.36326530612244 , squares average = 22140.296145124717
frame # 80, length = 2205 [samples], average = 138.80362811791383 , squares average = 32413.614512471657
frame # 81, length = 2205 [samples], average = 115.22721088435374 , squares average = 26454.525170068027
frame # 82, length = 2205 [samples], average = 137.1419501133787 , squares average = 32027.20634920635
frame # 83, length = 2205 [samples], average = 95.76371882086168 , squares average = 21807.37188208617
frame # 84, length = 2205 [samples], average = 154.22675736961452 , squares average = 36456.74648526077
frame # 85, length = 2205 [samples], average = 105.64716553287982 , squares average = 24284.828117913832
frame # 86, length = 2205 [samples], average = 154.25079365079364 , squares average = 37131.7664399093
frame # 87, length = 2205 [samples], average = 92.16009070294784 , squares average = 21056.719727891155
frame # 88, length = 2205 [samples], average = 143.90430839002266 , squares average = 34695.25941043084
frame # 89, length = 2205 [samples], average = 96.70702947845805 , squares average = 22536.96916099773
frame # 90, length = 2205 [samples], average = 138.30748299319728 , squares average = 32929.42040816326
frame # 91, length = 2205 [samples], average = 136.68616780045352 , squares average = 32605.907936507938
frame # 92, length = 2205 [samples], average = 117.96643990929705 , squares average = 28268.672108843537
frame # 93, length = 2205 [samples], average = 100.66485260770975 , squares average = 24101.957369614513
frame # 94, length = 2205 [samples], average = 133.93696145124716 , squares average = 32387.414512471656
frame # 95, length = 2205 [samples], average = 133.74104308390022 , squares average = 32449.250340136055
frame # 96, length = 2205 [samples], average = 137.65532879818593 , squares average = 33495.77414965986
frame # 97, length = 2205 [samples], average = 94.16462585034013 , squares average = 22439.88707482993
frame # 98, length = 2205 [samples], average = 148.8231292517007 , squares average = 36434.28163265306
frame # 99, length = 2205 [samples], average = 137.75963718820861 , squares average = 33382.077097505666
frame # 100, length = 2205 [samples], average = 162.2281179138322 , squares average = 39540.007709750564
frame # 101, length = 2205 [samples], average = 112.96371882086167 , squares average = 26981.30566893424
frame # 102, length = 2205 [samples], average = 136.25124716553287 , squares average = 32950.341950113376
frame # 103, length = 2205 [samples], average = 126.50702947845805 , squares average = 30235.672562358275
frame # 104, length = 2205 [samples], average = 164.4639455782313 , squares average = 39986.34240362812
frame # 105, length = 2205 [samples], average = 116.19591836734693 , squares average = 27067.512925170067
frame # 106, length = 2205 [samples], average = 145.00226757369614 , squares average = 34412.27936507937
frame # 107, length = 2205 [samples], average = 103.55056689342403 , squares average = 23384.040362811793
frame # 108, length = 2205 [samples], average = 139.4984126984127 , squares average = 32817.627210884355
frame # 109, length = 2205 [samples], average = 99.63038548752834 , squares average = 22343.88707482993
frame # 110, length = 2205 [samples], average = 143.40408163265306 , squares average = 33712.60498866213
frame # 111, length = 2205 [samples], average = 116.78321995464853 , squares average = 27217.545124716555
frame # 112, length = 2205 [samples], average = 131.40181405895692 , squares average = 30669.25759637188
frame # 113, length = 2205 [samples], average = 101.1360544217687 , squares average = 22646.502040816325
frame # 114, length = 2205 [samples], average = 115.65079365079364 , squares average = 27021.010430839004
frame # 115, length = 2205 [samples], average = 64.48526077097506 , squares average = 13846.836281179138
frame # 116, length = 2205 [samples], average = 99.67709750566894 , squares average = 22911.619954648526
frame # 117, length = 2205 [samples], average = 39.480725623582764 , squares average = 5710.809523809524
frame # 118, length = 2205 [samples], average = 37.061678004535146 , squares average = 2978.24716553288
frame # 119, length = 2205 [samples], average = 54.43265306122449 , squares average = 10187.671655328799
frame # 120, length = 2205 [samples], average = 193.35102040816327 , squares average = 46693.44353741497
frame # 121, length = 2205 [samples], average = 219.78095238095239 , squares average = 51683.039909297055
frame # 122, length = 2205 [samples], average = 227.65759637188208 , squares average = 52750.69160997732
frame # 123, length = 2205 [samples], average = 229.76507936507937 , squares average = 54996.55691609978
frame # 124, length = 2205 [samples], average = 221.41904761904763 , squares average = 53712.96462585034
frame # 125, length = 2205 [samples], average = 184.0249433106576 , squares average = 44386.84399092971
frame # 126, length = 2205 [samples], average = 181.3328798185941 , squares average = 44170.33514739229
frame # 127, length = 2205 [samples], average = 173.92562358276643 , squares average = 42099.27074829932
frame # 128, length = 2205 [samples], average = 167.48934240362811 , squares average = 40365.48480725624
frame # 129, length = 2205 [samples], average = 153.87936507936507 , squares average = 37112.26031746032
frame # 130, length = 2205 [samples], average = 109.83356009070295 , squares average = 25893.829024943312
frame # 131, length = 2205 [samples], average = 106.42539682539683 , squares average = 25121.79954648526
frame # 132, length = 2205 [samples], average = 130.35691609977323 , squares average = 30680.254421768706
frame # 133, length = 2205 [samples], average = 106.32108843537415 , squares average = 24584.965986394556
frame # 134, length = 2205 [samples], average = 124.56598639455783 , squares average = 29366.02448979592
frame # 135, length = 2205 [samples], average = 130.0281179138322 , squares average = 30361.21632653061
frame # 136, length = 2205 [samples], average = 151.02721088435374 , squares average = 35553.007256235825
frame # 137, length = 2205 [samples], average = 105.15102040816326 , squares average = 23798.265759637186
frame # 138, length = 2205 [samples], average = 136.94013605442177 , squares average = 31828.521088435373
frame # 139, length = 2205 [samples], average = 92.35691609977324 , squares average = 20578.08752834467
frame # 140, length = 2205 [samples], average = 132.52789115646257 , squares average = 31254.321088435376
frame # 141, length = 2205 [samples], average = 93.26621315192743 , squares average = 20983.72970521542
frame # 142, length = 2205 [samples], average = 140.85850340136054 , squares average = 32890.149206349204
frame # 143, length = 2205 [samples], average = 100.140589569161 , squares average = 22486.055328798186
frame # 144, length = 2205 [samples], average = 121.2031746031746 , squares average = 28539.1179138322
frame # 145, length = 2205 [samples], average = 117.88526077097505 , squares average = 27290.583673469388
frame # 146, length = 2205 [samples], average = 95.42131519274376 , squares average = 21383.591836734693
frame # 147, length = 2205 [samples], average = 152.09569160997734 , squares average = 36282.883900226756
frame # 148, length = 2205 [samples], average = 143.859410430839 , squares average = 34108.19047619047
frame # 149, length = 2205 [samples], average = 109.36598639455782 , squares average = 25573.185487528346
frame # 150, length = 2205 [samples], average = 129.48027210884354 , squares average = 30501.242630385488
frame # 151, length = 2205 [samples], average = 121.52063492063492 , squares average = 28673.53514739229
frame # 152, length = 2205 [samples], average = 113.00634920634921 , squares average = 26572.151020408164
frame # 153, length = 2205 [samples], average = 88.762358276644 , squares average = 20664.54829931973
frame # 154, length = 2205 [samples], average = 129.2140589569161 , squares average = 30789.955102040818
frame # 155, length = 2205 [samples], average = 141.2562358276644 , squares average = 33997.69433106576
frame # 156, length = 2205 [samples], average = 122.48616780045352 , squares average = 29224.444444444445
frame # 157, length = 2205 [samples], average = 142.84308390022676 , squares average = 34551.72018140589
frame # 158, length = 2205 [samples], average = 143.76009070294785 , squares average = 34592.7514739229
frame # 159, length = 2205 [samples], average = 119.54104308390022 , squares average = 28426.091609977324
frame # 160, length = 2205 [samples], average = 133.69433106575963 , squares average = 31915.19365079365
frame # 161, length = 2205 [samples], average = 110.01859410430839 , squares average = 26013.28752834467
frame # 162, length = 2205 [samples], average = 154.42902494331065 , squares average = 36837.619047619046
frame # 163, length = 2205 [samples], average = 107.39682539682539 , squares average = 24862.495238095238
frame # 164, length = 2205 [samples], average = 136.77551020408163 , squares average = 32287.455782312925
frame # 165, length = 2205 [samples], average = 119.77687074829932 , squares average = 27918.351020408165
frame # 166, length = 2205 [samples], average = 142.25215419501134 , squares average = 33384.92789115646
frame # 167, length = 2205 [samples], average = 93.62267573696145 , squares average = 20931.197278911564
frame # 168, length = 2205 [samples], average = 141.35192743764173 , squares average = 33416.549206349206
frame # 169, length = 2205 [samples], average = 90.65260770975057 , squares average = 20214.28979591837
frame # 170, length = 2205 [samples], average = 139.78956916099773 , squares average = 32989.081179138324
frame # 171, length = 2205 [samples], average = 122.86848072562358 , squares average = 28170.6589569161
frame # 172, length = 2205 [samples], average = 125.82176870748299 , squares average = 29449.061678004535
frame # 173, length = 2205 [samples], average = 108.21814058956916 , squares average = 24875.198639455783
frame # 174, length = 2205 [samples], average = 120.7655328798186 , squares average = 28393.091156462586
frame # 175, length = 2205 [samples], average = 107.74603174603175 , squares average = 24862.199546485263
frame # 176, length = 2205 [samples], average = 137.91927437641723 , squares average = 32796.61224489796
frame # 177, length = 2205 [samples], average = 133.87845804988663 , squares average = 31121.163718820862
frame # 178, length = 2205 [samples], average = 134.01133786848072 , squares average = 31719.219501133786
frame # 179, length = 2205 [samples], average = 117.98684807256235 , squares average = 28131.24217687075
frame # 180, length = 2205 [samples], average = 121.28571428571429 , squares average = 29085.808163265305
frame # 181, length = 2205 [samples], average = 140.0185941043084 , squares average = 33553.9306122449
frame # 182, length = 2205 [samples], average = 133.6358276643991 , squares average = 31724.720634920635
frame # 183, length = 2205 [samples], average = 147.07891156462586 , squares average = 35237.397278911565
frame # 184, length = 2205 [samples], average = 112.82721088435375 , squares average = 26669.748752834468
frame # 185, length = 2205 [samples], average = 126.95102040816326 , squares average = 30589.2947845805
frame # 186, length = 2205 [samples], average = 124.44580498866213 , squares average = 29707.327437641725
frame # 187, length = 2205 [samples], average = 139.9814058956916 , squares average = 34049.37369614512
frame # 188, length = 2205 [samples], average = 110.60589569160997 , squares average = 26501.47664399093
frame # 189, length = 2205 [samples], average = 104.96780045351474 , squares average = 24397.250793650794
frame # 190, length = 2205 [samples], average = 137.93424036281178 , squares average = 32843.348299319725
frame # 191, length = 2205 [samples], average = 107.81678004535148 , squares average = 25328.727437641723
frame # 192, length = 2205 [samples], average = 125.25124716553287 , squares average = 29775.84807256236
frame # 193, length = 2205 [samples], average = 109.59138321995465 , squares average = 25604.84126984127
frame # 194, length = 2205 [samples], average = 141.63809523809525 , squares average = 33812.358276643994
frame # 195, length = 2205 [samples], average = 121.11927437641724 , squares average = 27998.008163265305
frame # 196, length = 2205 [samples], average = 153.76009070294785 , squares average = 36316.744217687075
frame # 197, length = 2205 [samples], average = 104.33560090702947 , squares average = 23621.84308390023
frame # 198, length = 2205 [samples], average = 132.8766439909297 , squares average = 31140.404988662132
frame # 199, length = 2205 [samples], average = 98.52063492063492 , squares average = 22275.954648526076
