frame # 0, length = 2205 [samples], average = 139.04126984126984 , squares average = 33915.54467120182
frame # 1, length = 2205 [samples], average = 96.4798185941043 , squares average = 22709.194557823128
frame # 2, length = 2205 [samples], average = 146.43219954648526 , squares average = 35432.58276643991
frame # 3, length = 2205 [samples], average = 96.77551020408163 , squares average = 23060.751020408163
frame # 4, length = 2205 [samples], average = 143.87936507936507 , squares average = 35074.561451247166
frame # 5, length = 2205 [samples], average = 108.29024943310658 , squares average = 26150.28843537415
frame # 6, length = 2205 [samples], average = 155.8249433106576 , squares average = 38394.87891156463
frame # 7, length = 2205 [samples], average = 87.17641723356009 , squares average = 20936.92789115646
frame # 8, length = 2205 [samples], average = 154.6281179138322 , squares average = 38499.68934240363
frame # 9, length = 2205 [samples], average = 75.89070294784581 , squares average = 18503.731972789115
frame # 10, length = 2205 [samples], average = 154.44580498866213 , squares average = 38830.53469387755
frame # 11, length = 2205 [samples], average = 75.98367346938775 , squares average = 19026.750113378686
frame # 12, length = 2205 [samples], average = 119.60181405895692 , squares average = 30058.32471655329
frame # 13, length = 2205 [samples], average = 165.0780045351474 , squares average = 41717.92154195011
frame # 14, length = 2205 [samples], average = 71.44399092970522 , squares average = 17692.844444444443
frame # 15, length = 2205 [samples], average = 116.87120181405896 , squares average = 29250.305215419503
frame # 16, length = 2205 [samples], average = 82.3047619047619 , squares average = 20029.093877551022
frame # 17, length = 2205 [samples], average = 150.146485260771 , squares average = 37323.20589569161
frame # 18, length = 2205 [samples], average = 129.9546485260771 , squares average = 31999.590022675737
frame # 19, length = 2205 [samples], average = 152.82721088435375 , squares average = 37892.91337868481
frame # 20, length = 2205 [samples], average = 111.60544217687075 , squares average = 27193.574603174602
frame # 21, length = 2205 [samples], average = 127.35873015873015 , squares average = 30988.825396825396
frame # 22, length = 2205 [samples], average = 122.48526077097506 , squares average = 29814.15873015873
frame # 23, length = 2205 [samples], average = 131.0793650793651 , squares average = 32035.262585034012
frame # 24, length = 2205 [samples], average = 127.378231292517 , squares average = 30829.44716553288
frame # 25, length = 2205 [samples], average = 144.0829931972789 , squares average = 35064.71065759637
frame # 26, length = 2205 [samples], average = 136.56780045351474 , squares average = 33174.69750566893
frame # 27, length = 2205 [samples], average = 130.2253968253968 , squares average = 31332.966439909298
frame # 28, length = 2205 [samples], average = 130.5183673469388 , squares average = 31182.482993197278
frame # 29, length = 2205 [samples], average = 115.41768707482993 , squares average = 27452.387301587303
frame # 30, length = 2205 [samples], average = 137.58956916099774 , squares average = 33335.28117913832
frame # 31, length = 2205 [samples], average = 110.02494331065759 , squares average = 26140.356009070296
frame # 32, length = 2205 [samples], average = 129.79591836734693 , squares average = 31113.749659863945
frame # 33, length = 2205 [samples], average = 101.37732426303855 , squares average = 23981.94058956916
frame # 34, length = 2205 [samples], average = 147.71972789115645 , squares average = 35858.520634920635
frame # 35, length = 2205 [samples], average = 108.83083900226757 , squares average = 26121.707936507937
frame # 36, length = 2205 [samples], average = 146.5546485260771 , squares average = 35678.35056689342
frame # 37, length = 2205 [samples], average = 100.41723356009071 , squares average = 24127.620861678006
frame # 38, length = 2205 [samples], average = 140.7138321995465 , squares average = 34693.73696145125
frame # 39, length = 2205 [samples], average = 106.88344671201814 , squares average = 26159.77596371882
frame # 40, length = 2205 [samples], average = 141.44625850340137 , squares average = 35076.64263038549
frame # 41, length = 2205 [samples], average = 86.44308390022675 , squares average = 21257.819047619047
frame # 42, length = 2205 [samples], average = 152.01269841269843 , squares average = 38143.10839002267
frame # 43, length = 2205 [samples], average = 112.25215419501134 , squares average = 27959.381405895692
frame # 44, length = 2205 [samples], average = 114.01950113378685 , squares average = 28668.850340136054
frame # 45, length = 2205 [samples], average = 157.3233560090703 , squares average = 39747.34965986395
frame # 46, length = 2205 [samples], average = 99.56780045351474 , squares average = 24931.10612244898
frame # 47, length = 2205 [samples], average = 159.83265306122448 , squares average = 40211.850793650796
frame # 48, length = 2205 [samples], average = 90.49614512471655 , squares average = 22222.906122448978
frame # 49, length = 2205 [samples], average = 162.27573696145126 , squares average = 40493.863038548756
frame # 50, length = 2205 [samples], average = 88.92743764172336 , squares average = 21555.15873015873
frame # 51, length = 2205 [samples], average = 147.85532879818595 , squares average = 36561.23854875284
frame # 52, length = 2205 [samples], average = 117.23401360544217 , squares average = 28478.82222222222
frame # 53, length = 2205 [samples], average = 142.47256235827663 , squares average = 34918.98775510204
frame # 54, length = 2205 [samples], average = 106.04263038548753 , squares average = 25576.209523809524
frame # 55, length = 2205 [samples], average = 140.96417233560092 , squares average = 34351.05306122449
frame # 56, length = 2205 [samples], average = 122.04761904761905 , squares average = 29505.444444444445
frame # 57, length = 2205 [samples], average = 145.37097505668933 , squares average = 35277.76825396826
frame # 58, length = 2205 [samples], average = 121.23945578231293 , squares average = 29200.668027210886
frame # 59, length = 2205 [samples], average = 139.37097505668933 , squares average = 33636.0022675737
frame # 60, length = 2205 [samples], average = 137.97097505668935 , squares average = 33187.103854875284
frame # 61, length = 2205 [samples], average = 123.25170068027211 , squares average = 29427.27709750567
frame # 62, length = 2205 [samples], average = 134.03310657596373 , squares average = 32151.42267573696
frame # 63, length = 2205 [samples], average = 125.84308390022676 , squares average = 30228.057142857142
frame # 64, length = 2205 [samples], average = 134.6689342403628 , squares average = 32295.976870748298
frame # 65, length = 2205 [samples], average = 104.89569160997732 , squares average = 24944.32244897959
frame # 66, length = 2205 [samples], average = 140.87437641723355 , squares average = 34288.51972789116
frame # 67, length = 2205 [samples], average = 123.66031746031746 , squares average = 25884.35873015873
frame # 68, length = 2205 [samples], average = 113.4843537414966 , squares average = 23307.98866213152
frame # 69, length = 2205 [samples], average = 130.9609977324263 , squares average = 27786.170975056688
frame # 70, length = 2205 [samples], average = 120.10839002267574 , squares average = 25304.203628117913
frame # 71, length = 2205 [samples], average = 139.70884353741496 , squares average = 29985.44126984127
frame # 72, length = 2205 [samples], average = 127.5469387755102 , squares average = 27648.69523809524
frame # 73, length = 2205 [samples], average = 99.5718820861678 , squares average = 21598.18140589569
frame # 74, length = 2205 [samples], average = 147.68616780045352 , squares average = 34611.748752834465
frame # 75, length = 2205 [samples], average = 134.70975056689343 , squares average = 32248.778684807257
frame # 76, length = 2205 [samples], average = 148.05578231292517 , squares average = 36134.297052154194
frame # 77, length = 2205 [samples], average = 88.29523809523809 , squares average = 21102.261678004535
frame # 78, length = 2205 [samples], average = 142.95555555555555 , squares average = 35370.52743764172
frame # 79, length = 2205 [samples], average = 170.52290249433108 , squares average = 42649.46802721088
frame # 80, length = 2205 [samples], average = 94.31337868480726 , squares average = 23057.2485260771
frame # 81, length = 2205 [samples], average = 119.28616780045351 , squares average = 29325.357823129252
frame # 82, length = 2205 [samples], average = 111.19546485260771 , squares average = 27052.021768707484
frame # 83, length = 2205 [samples], average = 178.48072562358277 , squares average = 43891.84217687075
frame # 84, length = 2205 [samples], average = 108.06031746031746 , squares average = 26072.42947845805
frame # 85, length = 2205 [samples], average = 129.9514739229025 , squares average = 31633.86439909297
frame # 86, length = 2205 [samples], average = 106.46167800453514 , squares average = 25571.143764172335
frame # 87, length = 2205 [samples], average = 143.43356009070294 , squares average = 34860.20090702948
frame # 88, length = 2205 [samples], average = 113.93378684807256 , squares average = 27418.28117913832
frame # 89, length = 2205 [samples], average = 158.48979591836735 , squares average = 38723.23446712018
frame # 90, length = 2205 [samples], average = 108.79773242630385 , squares average = 25920.17641723356
frame # 91, length = 2205 [samples], average = 140.42086167800454 , squares average = 34020.93242630386
frame # 92, length = 2205 [samples], average = 116.19455782312926 , squares average = 27689.31201814059
frame # 93, length = 2205 [samples], average = 130.45442176870748 , squares average = 31285.56553287982
frame # 94, length = 2205 [samples], average = 118.97006802721089 , squares average = 28414.11927437642
frame # 95, length = 2205 [samples], average = 117.24807256235827 , squares average = 27891.95283446712
frame # 96, length = 2205 [samples], average = 133.58095238095237 , squares average = 32110.120634920633
frame # 97, length = 2205 [samples], average = 115.90566893424037 , squares average = 27679.149206349208
frame # 98, length = 2205 [samples], average = 135.35510204081632 , squares average = 32781.31156462585
frame # 99, length = 2205 [samples], average = 118.67709750566894 , squares average = 28593.273922902496
frame # 100, length = 2205 [samples], average = 128.46848072562358 , squares average = 31138.61179138322
frame # 101, length = 2205 [samples], average = 87.93514739229025 , squares average = 20823.827210884352
frame # 102, length = 2205 [samples], average = 154.69659863945577 , squares average = 38121.19727891157
frame # 103, length = 2205 [samples], average = 99.99455782312926 , squares average = 24488.203174603175
frame # 104, length = 2205 [samples], average = 131.843537414966 , squares average = 32768.82403628118
frame # 105, length = 2205 [samples], average = 117.35736961451248 , squares average = 29223.185941043084
frame # 106, length = 2205 [samples], average = 81.00272108843538 , squares average = 19953.55873015873
frame # 107, length = 2205 [samples], average = 131.99138321995466 , squares average = 33110.30340136054
frame # 108, length = 2205 [samples], average = 130.84489795918367 , squares average = 33027.348299319725
frame # 109, length = 2205 [samples], average = 114.74648526077098 , squares average = 28931.40680272109
frame # 110, length = 2205 [samples], average = 119.89387755102041 , squares average = 30234.750113378686
frame # 111, length = 2205 [samples], average = 172.13333333333333 , squares average = 43394.978684807254
frame # 112, length = 2205 [samples], average = 61.34421768707483 , squares average = 14934.222222222223
frame # 113, length = 2205 [samples], average = 147.5142857142857 , squares average = 36782.8947845805
frame # 114, length = 2205 [samples], average = 112.19954648526077 , squares average = 27459.868480725625
frame # 115, length = 2205 [samples], average = 148.80408163265307 , squares average = 36763.70566893424
frame # 116, length = 2205 [samples], average = 93.25668934240363 , squares average = 22365.95873015873
frame # 117, length = 2205 [samples], average = 141.3795918367347 , squares average = 34565.51292517007
frame # 118, length = 2205 [samples], average = 99.98412698412699 , squares average = 23911.855328798185
frame # 119, length = 2205 [samples], average = 155.0222222222222 , squares average = 37617.7387755102
frame # 120, length = 2205 [samples], average = 107.94421768707483 , squares average = 25712.849433106578
frame # 121, length = 2205 [samples], average = 144.1328798185941 , squares average = 34807.231292517004
frame # 122, length = 2205 [samples], average = 116.03492063492064 , squares average = 27745.955102040818
frame # 123, length = 2205 [samples], average = 152.5795918367347 , squares average = 36950.85260770975
frame # 124, length = 2205 [samples], average = 93.94648526077097 , squares average = 21879.26621315193
frame # 125, length = 2205 [samples], average = 143.05351473922903 , squares average = 34376.54376417233
frame # 126, length = 2205 [samples], average = 115.88979591836734 , squares average = 27399.048979591837
frame # 127, length = 2205 [samples], average = 135.64897959183673 , squares average = 32605.583673469388
frame # 128, length = 2205 [samples], average = 121.69433106575964 , squares average = 29231.734240362814
frame # 129, length = 2205 [samples], average = 118.42539682539683 , squares average = 28451.96281179138
frame # 130, length = 2205 [samples], average = 121.81814058956915 , squares average = 29454.937414965985
frame # 131, length = 2205 [samples], average = 121.14512471655328 , squares average = 29425.709297052155
frame # 132, length = 2205 [samples], average = 140.378231292517 , squares average = 34292.28934240363
frame # 133, length = 2205 [samples], average = 126.2140589569161 , squares average = 30876.0462585034
frame # 134, length = 2205 [samples], average = 123.70204081632653 , squares average = 30299.929705215418
frame # 135, length = 2205 [samples], average = 116.23083900226757 , squares average = 28437.30566893424
frame # 136, length = 2205 [samples], average = 140.47482993197278 , squares average = 34871.354648526074
frame # 137, length = 2205 [samples], average = 131.09569160997734 , squares average = 32582.86530612245
frame # 138, length = 2205 [samples], average = 164.3609977324263 , squares average = 41113.98911564626
frame # 139, length = 2205 [samples], average = 130.0934240362812 , squares average = 32547.513832199547
frame # 140, length = 2205 [samples], average = 145.35374149659864 , squares average = 36653.86530612245
frame # 141, length = 2205 [samples], average = 167.0095238095238 , squares average = 42133.37142857143
frame # 142, length = 2205 [samples], average = 120.11609977324262 , squares average = 30306.041723356007
frame # 143, length = 2205 [samples], average = 85.43809523809524 , squares average = 21218.958276643993
frame # 144, length = 2205 [samples], average = 70.30249433106576 , squares average = 17081.545124716555
frame # 145, length = 2205 [samples], average = 142.52108843537414 , squares average = 35548.83401360544
frame # 146, length = 2205 [samples], average = 105.26439909297052 , squares average = 25709.250793650794
frame # 147, length = 2205 [samples], average = 137.36598639455784 , squares average = 33808.09523809524
frame # 148, length = 2205 [samples], average = 107.8952380952381 , squares average = 26218.57006802721
frame # 149, length = 2205 [samples], average = 148.6907029478458 , squares average = 36402.18185941043
frame # 150, length = 2205 [samples], average = 88.73786848072562 , squares average = 21041.69931972789
frame # 151, length = 2205 [samples], average = 151.04625850340136 , squares average = 36911.8589569161
frame # 152, length = 2205 [samples], average = 99.69024943310657 , squares average = 23571.00725623583
frame # 153, length = 2205 [samples], average = 135.14784580498866 , squares average = 32573.678458049886
frame # 154, length = 2205 [samples], average = 113.5437641723356 , squares average = 26989.678004535148
frame # 155, length = 2205 [samples], average = 153.32063492063492 , squares average = 36993.25714285715
frame # 156, length = 2205 [samples], average = 102.44263038548753 , squares average = 24123.272562358277
frame # 157, length = 2205 [samples], average = 149.0548752834467 , squares average = 35932.502494331064
frame # 158, length = 2205 [samples], average = 105.86530612244898 , squares average = 24896.748752834468
frame # 159, length = 2205 [samples], average = 142.11927437641722 , squares average = 34421.3537414966
frame # 160, length = 2205 [samples], average = 115.87845804988662 , squares average = 27648.774603174603
frame # 161, length = 2205 [samples], average = 129.33650793650793 , squares average = 31190.646258503402
frame # 162, length = 2205 [samples], average = 114.8625850340136 , squares average = 27371.754195011337
frame # 163, length = 2205 [samples], average = 126.10566893424036 , squares average = 30403.015419501135
frame # 164, length = 2205 [samples], average = 118.88843537414967 , squares average = 28914.97732426304
frame # 165, length = 2205 [samples], average = 113.12426303854875 , squares average = 27418.32244897959
frame # 166, length = 2205 [samples], average = 125.27165532879819 , squares average = 30667.456689342405
frame # 167, length = 2205 [samples], average = 96.00725623582767 , squares average = 23318.532426303856
frame # 168, length = 2205 [samples], average = 122.97324263038549 , squares average = 30526.18684807256
frame # 169, length = 2205 [samples], average = 112.29886621315192 , squares average = 27855.614965986395
frame # 170, length = 2205 [samples], average = 156.4512471655329 , squares average = 39178.22448979592
frame # 171, length = 2205 [samples], average = 105.62947845804989 , squares average = 26413.99954648526
frame # 172, length = 2205 [samples], average = 185.18820861678006 , squares average = 46744.85804988662
frame # 173, length = 2205 [samples], average = 181.69160997732428 , squares average = 45831.01587301587
frame # 174, length = 2205 [samples], average = 168.48526077097506 , squares average = 42471.19455782313
frame # 175, length = 2205 [samples], average = 72.0312925170068 , squares average = 17834.127437641724
frame # 176, length = 2205 [samples], average = 90.37687074829932 , squares average = 22462.836734693876
frame # 177, length = 2205 [samples], average = 137.70521541950114 , squares average = 34531.63265306123
frame # 178, length = 2205 [samples], average = 94.88979591836734 , squares average = 23425.191836734695
frame # 179, length = 2205 [samples], average = 147.70385487528344 , squares average = 36606.812244897956
frame # 180, length = 2205 [samples], average = 92.19909297052155 , squares average = 22138.372335600907
frame # 181, length = 2205 [samples], average = 146.20045351473922 , squares average = 36019.53015873016
frame # 182, length = 2205 [samples], average = 95.08072562358277 , squares average = 22753.97596371882
frame # 183, length = 2205 [samples], average = 155.80181405895692 , squares average = 38130.578231292515
frame # 184, length = 2205 [samples], average = 109.22312925170068 , squares average = 25925.88707482993
frame # 185, length = 2205 [samples], average = 150.3922902494331 , squares average = 36336.11746031746
frame # 186, length = 2205 [samples], average = 102.8517006802721 , squares average = 24326.42811791383
frame # 187, length = 2205 [samples], average = 164.44126984126984 , squares average = 39887.74557823129
frame # 188, length = 2205 [samples], average = 104.74739229024944 , squares average = 24583.646258503402
frame # 189, length = 2205 [samples], average = 141.52244897959184 , squares average = 33853.257596371885
frame # 190, length = 2205 [samples], average = 103.9609977324263 , squares average = 24149.28344671202
frame # 191, length = 2205 [samples], average = 142.5487528344671 , squares average = 34025.47845804989
frame # 192, length = 2205 [samples], average = 108.66349206349206 , squares average = 25503.643083900228
frame # 193, length = 2205 [samples], average = 128.5532879818594 , squares average = 30823.527437641722
frame # 194, length = 2205 [samples], average = 106.55510204081632 , squares average = 25327.281632653063
frame # 195, length = 2205 [samples], average = 138.26213151927436 , squares average = 33464.878004535145
frame # 196, length = 2205 [samples], average = 114.9514739229025 , squares average = 27652.491609977325
frame # 197, length = 2205 [samples], average = 130.8639455782313 , squares average = 31787.44081632653
frame # 198, length = 2205 [samples], average = 118.6625850340136 , squares average = 28853.01723356009
frame # 199, length = 2205 [samples], average = 109.95283446712018 , squares average = 26807.774149659865
