frame # 0, length = 2205 [samples], average = 133.33197278911564 , squares average = 32454.055782312924
frame # 1, length = 2205 [samples], average = 144.86077097505668 , squares average = 35636.01088435374
frame # 2, length = 2205 [samples], average = 98.02448979591837 , squares average = 23834.76462585034
frame # 3, length = 2205 [samples], average = 161.1936507936508 , squares average = 39857.42222222222
frame # 4, length = 2205 [samples], average = 115.659410430839 , squares average = 28019.839909297054
frame # 5, length = 2205 [samples], average = 122.31700680272108 , squares average = 30024.35963718821
frame # 6, length = 2205 [samples], average = 88.10566893424036 , squares average = 21384.655328798184
frame # 7, length = 2205 [samples], average = 155.76054421768708 , squares average = 38412.974149659865
frame # 8, length = 2205 [samples], average = 116.12879818594104 , squares average = 28188.737414965988
frame # 9, length = 2205 [samples], average = 139.5655328798186 , squares average = 34244.405442176874
frame # 10, length = 2205 [samples], average = 103.24671201814058 , squares average = 25093.64761904762
frame # 11, length = 2205 [samples], average = 147.8172335600907 , squares average = 36121.496145124715
frame # 12, length = 2205 [samples], average = 105.38956916099774 , squares average = 25472.316553287983
frame # 13, length = 2205 [samples], average = 146.2485260770975 , squares average = 35851.47392290249
frame # 14, length = 2205 [samples], average = 81.44036281179139 , squares average = 19397.921995464854
frame # 15, length = 2205 [samples], average = 142.96054421768707 , squares average = 35041.93378684807
frame # 16, length = 2205 [samples], average = 113.24263038548753 , squares average = 27433.303401360543
frame # 17, length = 2205 [samples], average = 147.2172335600907 , squares average = 36673.36598639456
frame # 18, length = 2205 [samples], average = 86.03492063492064 , squares average = 20721.0462585034
frame # 19, length = 2205 [samples], average = 153.96054421768707 , squares average = 38178.03673469388
frame # 20, length = 2205 [samples], average = 108.38185941043083 , squares average = 26228.749206349206
frame # 21, length = 2205 [samples], average = 145.31337868480725 , squares average = 35797.00680272109
frame # 22, length = 2205 [samples], average = 95.54920634920634 , squares average = 22725.233560090703
frame # 23, length = 2205 [samples], average = 148.38321995464852 , squares average = 36184.5873015873
frame # 24, length = 2205 [samples], average = 104.98548752834468 , squares average = 25045.996825396825
frame # 25, length = 2205 [samples], average = 158.34240362811792 , squares average = 39221.085260770975
frame # 26, length = 2205 [samples], average = 101.73061224489796 , squares average = 24616.026303854876
frame # 27, length = 2205 [samples], average = 141.60680272108843 , squares average = 34951.51700680272
frame # 28, length = 2205 [samples], average = 110.4562358276644 , squares average = 27279.448526077096
frame # 29, length = 2205 [samples], average = 172.91473922902495 , squares average = 42720.12562358277
frame # 30, length = 2205 [samples], average = 111.06258503401361 , squares average = 27234.526530612246
frame # 31, length = 2205 [samples], average = 151.73650793650793 , squares average = 37222.750566893425
frame # 32, length = 2205 [samples], average = 101.22675736961452 , squares average = 24298.180045351473
frame # 33, length = 2205 [samples], average = 141.52290249433108 , squares average = 35041.461224489794
frame # 34, length = 2205 [samples], average = 100.82358276643991 , squares average = 24605.124716553288
frame # 35, length = 2205 [samples], average = 152.01179138321996 , squares average = 37468.575963718824
frame # 36, length = 2205 [samples], average = 101.96462585034014 , squares average = 24366.82448979592
frame # 37, length = 2205 [samples], average = 148.49115646258502 , squares average = 36701.70839002268
frame # 38, length = 2205 [samples], average = 135.740589569161 , squares average = 33497.87845804988
frame # 39, length = 2205 [samples], average = 130.72879818594103 , squares average = 32326.44036281179
frame # 40, length = 2205 [samples], average = 114.34195011337869 , squares average = 27843.609070294784
frame # 41, length = 2205 [samples], average = 152.42630385487527 , squares average = 37809.450340136056
frame # 42, length = 2205 [samples], average = 86.18866213151928 , squares average = 20662.320181405896
frame # 43, length = 2205 [samples], average = 124.63310657596372 , squares average = 31088.504308390024
frame # 44, length = 2205 [samples], average = 130.02448979591836 , squares average = 32193.99455782313
frame # 45, length = 2205 [samples], average = 208.25034013605443 , squares average = 52223.90022675737
frame # 46, length = 2205 [samples], average = 130.44036281179137 , squares average = 32129.120634920633
frame # 47, length = 2205 [samples], average = 136.88390022675736 , squares average = 34203.623129251704
frame # 48, length = 2205 [samples], average = 115.5124716553288 , squares average = 28048.71156462585
frame # 49, length = 2205 [samples], average = 147.8031746031746 , squares average = 36407.01405895691
frame # 50, length = 2205 [samples], average = 125.05714285714286 , squares average = 29461.363718820863
frame # 51, length = 2205 [samples], average = 137.69251700680272 , squares average = 33606.996825396825
frame # 52, length = 2205 [samples], average = 105.01133786848072 , squares average = 24888.5768707483
frame # 53, length = 2205 [samples], average = 145.15963718820862 , squares average = 35290.79501133787
frame # 54, length = 2205 [samples], average = 104.39637188208617 , squares average = 25521.75782312925
frame # 55, length = 2205 [samples], average = 114.90068027210884 , squares average = 27887.94557823129
frame # 56, length = 2205 [samples], average = 100.52834467120181 , squares average = 24190.214512471655
frame # 57, length = 2205 [samples], average = 199.9047619047619 , squares average = 50344.42993197279
frame # 58, length = 2205 [samples], average = 125.83628117913833 , squares average = 30577.50612244898
frame # 59, length = 2205 [samples], average = 154.88526077097507 , squares average = 38370.05804988662
frame # 60, length = 2205 [samples], average = 99.83628117913833 , squares average = 24400.749659863945
frame # 61, length = 2205 [samples], average = 145.67936507936508 , squares average = 36101.5641723356
frame # 62, length = 2205 [samples], average = 95.40226757369615 , squares average = 23309.237188208615
frame # 63, length = 2205 [samples], average = 140.82267573696146 , squares average = 34738.09070294785
frame # 64, length = 2205 [samples], average = 126.45351473922902 , squares average = 30888.54693877551
frame # 65, length = 2205 [samples], average = 169.59727891156462 , squares average = 42099.91746031746
frame # 66, length = 2205 [samples], average = 119.69977324263039 , squares average = 29263.11111111111
frame # 67, length = 2205 [samples], average = 171.30204081632652 , squares average = 42803.35102040816
frame # 68, length = 2205 [samples], average = 109.96145124716553 , squares average = 26964.848526077098
frame # 69, length = 2205 [samples], average = 150.40952380952382 , squares average = 37370.29433106576
frame # 70, length = 2205 [samples], average = 92.15918367346939 , squares average = 21963.325623582765
frame # 71, length = 2205 [samples], average = 123.48027210884354 , squares average = 30072.84172335601
frame # 72, length = 2205 [samples], average = 107.87664399092971 , squares average = 25658.196825396826
frame # 73, length = 2205 [samples], average = 159.95419501133787 , squares average = 39343.249433106575
frame # 74, length = 2205 [samples], average = 95.38956916099774 , squares average = 22847.81315192744
frame # 75, length = 2205 [samples], average = 157.62267573696144 , squares average = 38431.438548752834
frame # 76, length = 2205 [samples], average = 128.62766439909296 , squares average = 31452.898866213152
frame # 77, length = 2205 [samples], average = 147.07709750566895 , squares average = 35869.623129251704
frame # 78, length = 2205 [samples], average = 89.53287981859411 , squares average = 21191.086621315193
frame # 79, length = 2205 [samples], average = 146.96462585034013 , squares average = 36054.49659863945
frame # 80, length = 2205 [samples], average = 101.56825396825397 , squares average = 24313.209977324263
frame # 81, length = 2205 [samples], average = 126.59138321995465 , squares average = 31213.183673469386
frame # 82, length = 2205 [samples], average = 99.5750566893424 , squares average = 23674.200907029477
frame # 83, length = 2205 [samples], average = 139.1950113378685 , squares average = 34288.727891156464
frame # 84, length = 2205 [samples], average = 86.61133786848073 , squares average = 20442.220408163266
frame # 85, length = 2205 [samples], average = 171.48979591836735 , squares average = 42438.1746031746
frame # 86, length = 2205 [samples], average = 103.68798185941043 , squares average = 25329.821315192745
frame # 87, length = 2205 [samples], average = 112.04489795918367 , squares average = 26693.14784580499
frame # 88, length = 2205 [samples], average = 74.56326530612245 , squares average = 17268.401814058958
frame # 89, length = 2205 [samples], average = 137.82857142857142 , squares average = 33767.19546485261
frame # 90, length = 2205 [samples], average = 128.22585034013605 , squares average = 31328.578684807257
frame # 91, length = 2205 [samples], average = 154.32199546485262 , squares average = 37725.604535147395
frame # 92, length = 2205 [samples], average = 117.46349206349207 , squares average = 28517.13424036281
frame # 93, length = 2205 [samples], average = 135.3501133786848 , squares average = 33503.23945578231
frame # 94, length = 2205 [samples], average = 81.80090702947845 , squares average = 19619.16507936508
frame # 95, length = 2205 [samples], average = 126.85714285714286 , squares average = 30430.13424036281
frame # 96, length = 2205 [samples], average = 105.70566893424036 , squares average = 25012.8820861678
frame # 97, length = 2205 [samples], average = 158.92562358276643 , squares average = 39635.007256235825
frame # 98, length = 2205 [samples], average = 99.13832199546485 , squares average = 23734.62403628118
frame # 99, length = 2205 [samples], average = 155.37732426303856 , squares average = 37805.07074829932
frame # 100, length = 2205 [samples], average = 115.52834467120181 , squares average = 28092.772789115646
frame # 101, length = 2205 [samples], average = 166.0984126984127 , squares average = 41473.6947845805
frame # 102, length = 2205 [samples], average = 109.31201814058957 , squares average = 26335.48979591837
frame # 103, length = 2205 [samples], average = 147.94240362811792 , squares average = 35978.59727891156
frame # 104, length = 2205 [samples], average = 111.44489795918368 , squares average = 26989.522902494333
frame # 105, length = 2205 [samples], average = 146.00362811791382 , squares average = 36105.48662131519
frame # 106, length = 2205 [samples], average = 114.22267573696145 , squares average = 27719.480725623584
frame # 107, length = 2205 [samples], average = 152.1827664399093 , squares average = 37230.737868480726
frame # 108, length = 2205 [samples], average = 117.25714285714285 , squares average = 28845.490249433107
frame # 109, length = 2205 [samples], average = 140.20408163265307 , squares average = 34761.81133786848
frame # 110, length = 2205 [samples], average = 83.7795918367347 , squares average = 19401.58095238095
frame # 111, length = 2205 [samples], average = 129.1360544217687 , squares average = 31965.678458049886
frame # 112, length = 2205 [samples], average = 116.08798185941043 , squares average = 27376.46621315193
frame # 113, length = 2205 [samples], average = 226.93151927437643 , squares average = 55990.39365079365
frame # 114, length = 2205 [samples], average = 156.89931972789117 , squares average = 38605.087074829935
frame # 115, length = 2205 [samples], average = 161.63038548752834 , squares average = 39733.46349206349
frame # 116, length = 2205 [samples], average = 112.46349206349207 , squares average = 27740.97505668934
frame # 117, length = 2205 [samples], average = 136.3265306122449 , squares average = 33136.12063492063
frame # 118, length = 2205 [samples], average = 81.88843537414967 , squares average = 19603.33968253968
frame # 119, length = 2205 [samples], average = 145.65532879818593 , squares average = 35491.78775510204
frame # 120, length = 2205 [samples], average = 101.06575963718821 , squares average = 24507.455782312925
frame # 121, length = 2205 [samples], average = 143.75963718820861 , squares average = 35326.97052154195
frame # 122, length = 2205 [samples], average = 75.40680272108844 , squares average = 17905.12925170068
frame # 123, length = 2205 [samples], average = 118.82222222222222 , squares average = 28942.968253968254
frame # 124, length = 2205 [samples], average = 99.77233560090703 , squares average = 24178.915192743763
frame # 125, length = 2205 [samples], average = 128.7718820861678 , squares average = 31902.144217687073
frame # 126, length = 2205 [samples], average = 84.37732426303855 , squares average = 20160.816326530614
frame # 127, length = 2205 [samples], average = 124.04897959183674 , squares average = 30055.343310657598
frame # 128, length = 2205 [samples], average = 63.68480725623583 , squares average = 14755.439909297053
frame # 129, length = 2205 [samples], average = 90.35510204081632 , squares average = 21678.503854875282
frame # 130, length = 2205 [samples], average = 38.358276643990926 , squares average = 8397.84761904762
frame # 131, length = 2205 [samples], average = 57.788662131519274 , squares average = 13092.543310657597
frame # 132, length = 2205 [samples], average = 103.64671201814059 , squares average = 24574.5410430839
frame # 133, length = 2205 [samples], average = 72.13786848072563 , squares average = 16512.115192743764
frame # 134, length = 2205 [samples], average = 141.72108843537416 , squares average = 33199.39455782313
frame # 135, length = 2205 [samples], average = 116.2734693877551 , squares average = 27756.94013605442
frame # 136, length = 2205 [samples], average = 166.58049886621316 , squares average = 40014.14331065759
frame # 137, length = 2205 [samples], average = 241.2439909297052 , squares average = 59016.2335600907
frame # 138, length = 2205 [samples], average = 142.9219954648526 , squares average = 34776.2
frame # 139, length = 2205 [samples], average = 185.9206349206349 , squares average = 45898.35963718821
frame # 140, length = 2205 [samples], average = 132.09659863945578 , squares average = 31709.827210884352
frame # 141, length = 2205 [samples], average = 215.10022675736963 , squares average = 53567.69342403628
frame # 142, length = 2205 [samples], average = 116.63356009070294 , squares average = 28160.155555555557
frame # 143, length = 2205 [samples], average = 233.29160997732427 , squares average = 58124.69206349206
frame # 144, length = 2205 [samples], average = 175.91836734693877 , squares average = 42572.21950113379
frame # 145, length = 2205 [samples], average = 242.18503401360545 , squares average = 59447.321541950114
frame # 146, length = 2205 [samples], average = 209.66122448979593 , squares average = 51393.90975056689
frame # 147, length = 2205 [samples], average = 208.65079365079364 , squares average = 51300.35238095238
frame # 148, length = 2205 [samples], average = 188.86303854875283 , squares average = 46384.579138322
frame # 149, length = 2205 [samples], average = 169.1950113378685 , squares average = 41411.19410430839
frame # 150, length = 2205 [samples], average = 192.10748299319727 , squares average = 47222.600907029475
frame # 151, length = 2205 [samples], average = 108.9655328798186 , squares average = 25809.780952380952
frame # 152, length = 2205 [samples], average = 48.66122448979592 , squares average = 11277.25260770975
frame # 153, length = 2205 [samples], average = 100.76961451247166 , squares average = 23918.44126984127
frame # 154, length = 2205 [samples], average = 99.38458049886621 , squares average = 24392.380498866212
frame # 155, length = 2205 [samples], average = 188.67301587301588 , squares average = 47078.791836734694
frame # 156, length = 2205 [samples], average = 107.56326530612245 , squares average = 25845.849886621316
frame # 157, length = 2205 [samples], average = 106.70566893424036 , squares average = 26054.974149659865
frame # 158, length = 2205 [samples], average = 125.06757369614512 , squares average = 30693.250793650794
frame # 159, length = 2205 [samples], average = 207.24897959183673 , squares average = 51481.758730158734
frame # 160, length = 2205 [samples], average = 143.9297052154195 , squares average = 34840.09206349206
frame # 161, length = 2205 [samples], average = 159.07755102040815 , squares average = 39095.71609977324
frame # 162, length = 2205 [samples], average = 143.41179138321996 , squares average = 34702.461224489794
frame # 163, length = 2205 [samples], average = 189.72426303854874 , squares average = 46580.10884353742
frame # 164, length = 2205 [samples], average = 147.99138321995466 , squares average = 36578.75782312925
frame # 165, length = 2205 [samples], average = 127.83174603174604 , squares average = 31408.26984126984
frame # 166, length = 2205 [samples], average = 126.47392290249434 , squares average = 31316.71882086168
frame # 167, length = 2205 [samples], average = 127.87482993197278 , squares average = 31374.65941043084
frame # 168, length = 2205 [samples], average = 82.18639455782314 , squares average = 20231.190476190477
frame # 169, length = 2205 [samples], average = 124.64081632653061 , squares average = 30360.919274376418
frame # 170, length = 2205 [samples], average = 93.56190476190476 , squares average = 22706.739229024945
frame # 171, length = 2205 [samples], average = 135.02857142857144 , squares average = 33027.93197278911
frame # 172, length = 2205 [samples], average = 92.29705215419501 , squares average = 22254.172789115648
frame # 173, length = 2205 [samples], average = 103.46213151927438 , squares average = 25371.51655328798
frame # 174, length = 2205 [samples], average = 67.12925170068027 , squares average = 15918.239455782314
frame # 175, length = 2205 [samples], average = 126.37641723356009 , squares average = 31108.143310657597
frame # 176, length = 2205 [samples], average = 131.17596371882087 , squares average = 32414.898412698414
frame # 177, length = 2205 [samples], average = 183.1768707482993 , squares average = 45584.02857142857
frame # 178, length = 2205 [samples], average = 129.36190476190475 , squares average = 31879.402721088434
frame # 179, length = 2205 [samples], average = 181.14965986394557 , squares average = 45182.71609977324
frame # 180, length = 2205 [samples], average = 127.72517006802721 , squares average = 31284.27029478458
frame # 181, length = 2205 [samples], average = 135.77369614512472 , squares average = 33590.438548752834
frame # 182, length = 2205 [samples], average = 119.46530612244898 , squares average = 29721.337414965987
frame # 183, length = 2205 [samples], average = 160.1687074829932 , squares average = 39751.10476190476
frame # 184, length = 2205 [samples], average = 128.00725623582767 , squares average = 31292.99863945578
frame # 185, length = 2205 [samples], average = 154.41496598639455 , squares average = 38070.21179138322
frame # 186, length = 2205 [samples], average = 105.90340136054422 , squares average = 25634.814965986396
frame # 187, length = 2205 [samples], average = 151.29569160997733 , squares average = 37443.590476190475
frame # 188, length = 2205 [samples], average = 128.22675736961452 , squares average = 31692.89433106576
frame # 189, length = 2205 [samples], average = 116.72471655328798 , squares average = 28666.760997732425
frame # 190, length = 2205 [samples], average = 98.30657596371883 , squares average = 23343.81133786848
frame # 191, length = 2205 [samples], average = 88.14603174603175 , squares average = 21041.55827664399
frame # 192, length = 2205 [samples], average = 123.97414965986394 , squares average = 29901.408163265307
frame # 193, length = 2205 [samples], average = 156.0920634920635 , squares average = 38694.21723356009
frame # 194, length = 2205 [samples], average = 96.82448979591837 , squares average = 23183.2589569161
frame # 195, length = 2205 [samples], average = 134.08662131519273 , squares average = 33049.067120181404
frame # 196, length = 2205 [samples], average = 113.40680272108844 , squares average = 27893.85215419501
frame # 197, length = 2205 [samples], average = 141.39501133786848 , squares average = 35004.6739229025
frame # 198, length = 2205 [samples], average = 98.81768707482993 , squares average = 23758.79410430839
frame # 199, length = 2205 [samples], average = 143.1097505668934 , squares average = 35123.47619047619
